<?xml version="1.0" encoding="utf-8"?>
<!-- Generator: Adobe Illustrator 16.0.3, SVG Export Plug-In . SVG Version: 6.00 Build 0)  -->
<!DOCTYPE svg PUBLIC "-//W3C//DTD SVG 1.1//EN" "http://www.w3.org/Graphics/SVG/1.1/DTD/svg11.dtd">
<svg version="1.1" id="Layer_1" xmlns="http://www.w3.org/2000/svg" xmlns:xlink="http://www.w3.org/1999/xlink" x="0px" y="0px"
	 width="200px" height="41px" viewBox="0 0 200 41" enable-background="new 0 0 200 41" xml:space="preserve">
<g id="Layer_1_copy" display="none">
	
		<text transform="matrix(1 0 0 1 72.751 23.9063)" display="inline" fill="#7F7F7F" font-family="'Georgia'" font-size="11" letter-spacing="3">EXPAND</text>
	<path display="inline" fill="#020202" d="M156.389,24.083c0.438-0.374,0.864-0.735,1.289-1.101
		c0.539-0.461,1.077-0.924,1.619-1.381c0.48-0.406,0.971-0.803,1.451-1.213c0.521-0.447,1.039-0.908,1.559-1.363
		c0.342-0.299,0.68-0.604,1.025-0.893c0.046-0.038,0.148-0.029,0.195,0.012c0.552,0.472,1.098,0.954,1.646,1.432
		c0.593,0.518,1.187,1.036,1.781,1.552c0.597,0.517,1.194,1.03,1.791,1.547c0.524,0.456,1.049,0.914,1.573,1.371
		c0.035,0.029,0.074,0.048,0.138,0.085c0.104-0.344,0.216-0.675,0.3-1.016c0.014-0.051-0.086-0.166-0.148-0.223
		c-0.555-0.488-1.11-0.976-1.672-1.453c-0.528-0.456-1.064-0.897-1.597-1.354c-0.521-0.449-1.032-0.913-1.554-1.362
		c-0.4-0.347-0.809-0.678-1.209-1.023c-0.307-0.262-0.604-0.538-0.906-0.806c-0.111-0.099-0.22-0.146-0.35-0.03
		c-0.518,0.459-1.036,0.916-1.559,1.366c-0.453,0.391-0.916,0.765-1.369,1.157c-0.518,0.447-1.024,0.906-1.537,1.358
		c-0.291,0.256-0.582,0.51-0.879,0.756c-0.447,0.373-0.898,0.735-1.351,1.104c-0.079,0.064-0.161,0.129-0.239,0.195
		c-0.261,0.217-0.264,0.217-0.178,0.59C156.266,23.624,156.328,23.848,156.389,24.083z"/>
</g>
<g id="Layer_1_1_">
	<path fill="#020202" d="M156.389,16.847c0.438,0.374,0.864,0.736,1.289,1.1c0.539,0.461,1.077,0.924,1.619,1.382
		c0.48,0.406,0.971,0.801,1.451,1.213c0.521,0.447,1.039,0.908,1.559,1.362c0.342,0.3,0.68,0.604,1.025,0.894
		c0.046,0.039,0.148,0.029,0.195-0.012c0.552-0.472,1.098-0.953,1.646-1.433c0.593-0.519,1.187-1.037,1.781-1.553
		c0.597-0.517,1.194-1.03,1.791-1.547c0.524-0.456,1.049-0.914,1.573-1.371c0.035-0.029,0.074-0.048,0.138-0.085
		c0.104,0.344,0.216,0.675,0.3,1.016c0.014,0.05-0.086,0.166-0.148,0.223c-0.555,0.488-1.11,0.974-1.672,1.453
		c-0.528,0.454-1.064,0.897-1.597,1.353c-0.521,0.449-1.032,0.913-1.554,1.362c-0.4,0.346-0.809,0.678-1.209,1.021
		c-0.307,0.264-0.604,0.537-0.906,0.807c-0.111,0.099-0.22,0.146-0.35,0.027c-0.518-0.459-1.036-0.916-1.559-1.363
		c-0.453-0.393-0.916-0.766-1.369-1.157c-0.518-0.445-1.024-0.906-1.537-1.358c-0.291-0.256-0.582-0.51-0.879-0.756
		c-0.447-0.373-0.898-0.737-1.351-1.105c-0.079-0.065-0.161-0.13-0.239-0.196c-0.261-0.216-0.264-0.216-0.178-0.59
		C156.266,17.306,156.328,17.082,156.389,16.847z"/>
</g>
<g>
	<path fill="#7F7F7F" d="M68.547,14.963c1.031,0,1.925,0.392,2.681,1.175s1.134,1.761,1.134,2.933c0,1.207-0.381,2.208-1.143,3.005
		s-1.684,1.195-2.766,1.195c-1.094,0-2.013-0.389-2.757-1.166s-1.116-1.783-1.116-3.017c0-1.262,0.43-2.291,1.289-3.088
		C66.615,15.309,67.508,14.963,68.547,14.963z M68.436,15.391c-0.711,0-1.281,0.264-1.711,0.791
		c-0.535,0.656-0.803,1.617-0.803,2.883c0,1.297,0.277,2.294,0.832,2.994c0.426,0.531,0.988,0.797,1.688,0.797
		c0.746,0,1.362-0.291,1.849-0.873s0.729-1.5,0.729-2.753c0-1.359-0.268-2.373-0.803-3.041
		C69.787,15.657,69.193,15.391,68.436,15.391z"/>
	<path fill="#7F7F7F" d="M84.849,14.963l0.182,2.701h-0.182c-0.242-0.809-0.588-1.391-1.037-1.746s-0.988-0.533-1.617-0.533
		c-0.527,0-1.004,0.134-1.43,0.401s-0.761,0.694-1.005,1.28s-0.366,1.314-0.366,2.186c0,0.719,0.115,1.342,0.346,1.869
		c0.23,0.527,0.577,0.932,1.04,1.213s0.991,0.422,1.585,0.422c0.516,0,0.971-0.109,1.365-0.33s0.828-0.66,1.301-1.316l0.182,0.117
		c-0.398,0.707-0.863,1.225-1.395,1.553s-1.162,0.492-1.893,0.492c-1.316,0-2.336-0.488-3.059-1.465
		c-0.539-0.727-0.809-1.582-0.809-2.566c0-0.793,0.178-1.521,0.533-2.186s0.845-1.179,1.468-1.544s1.304-0.548,2.042-0.548
		c0.574,0,1.141,0.141,1.699,0.422c0.164,0.086,0.281,0.129,0.352,0.129c0.105,0,0.197-0.037,0.275-0.111
		c0.102-0.105,0.174-0.252,0.217-0.439H84.849z"/>
	<path fill="#7F7F7F" d="M96.153,15.362v-0.217h2.813v0.217h-0.299c-0.313,0-0.554,0.131-0.721,0.393
		c-0.082,0.121-0.123,0.402-0.123,0.844v3.223c0,0.797-0.08,1.416-0.238,1.855c-0.158,0.439-0.468,0.816-0.931,1.131
		s-1.093,0.471-1.89,0.471c-0.867,0-1.525-0.15-1.975-0.451s-0.768-0.705-0.955-1.213c-0.125-0.348-0.188-1-0.188-1.957v-3.105
		c0-0.488-0.067-0.809-0.202-0.961s-0.353-0.229-0.653-0.229h-0.299v-0.217h3.434v0.217h-0.305c-0.328,0-0.563,0.104-0.703,0.311
		c-0.098,0.141-0.146,0.434-0.146,0.879v3.463c0,0.309,0.028,0.662,0.085,1.06c0.057,0.398,0.159,0.709,0.308,0.932
		s0.362,0.406,0.642,0.551s0.622,0.217,1.028,0.217c0.52,0,0.984-0.113,1.395-0.34s0.69-0.516,0.841-0.869s0.226-0.953,0.226-1.796
		v-3.217c0-0.496-0.055-0.807-0.164-0.932c-0.152-0.172-0.379-0.258-0.68-0.258H96.153z"/>
	<path fill="#7F7F7F" d="M110.773,20.893l0.193,0.041l-0.68,2.156h-6.152v-0.217h0.299c0.336,0,0.576-0.109,0.721-0.328
		c0.082-0.125,0.123-0.414,0.123-0.867v-5.126c0-0.496-0.055-0.807-0.164-0.932c-0.152-0.172-0.379-0.258-0.68-0.258h-0.299v-0.217
		h3.598v0.217c-0.422-0.004-0.718,0.035-0.888,0.117s-0.286,0.186-0.349,0.311s-0.094,0.424-0.094,0.896v4.992
		c0,0.324,0.031,0.547,0.094,0.668c0.047,0.082,0.119,0.143,0.217,0.182s0.402,0.059,0.914,0.059h0.58
		c0.609,0,1.037-0.045,1.283-0.135s0.471-0.248,0.674-0.477S110.57,21.385,110.773,20.893z"/>
	<path fill="#7F7F7F" d="M121.866,15.145l0.088,1.863h-0.223c-0.043-0.328-0.102-0.563-0.176-0.703
		c-0.121-0.227-0.282-0.394-0.483-0.501s-0.466-0.161-0.794-0.161h-1.119v6.07c0,0.488,0.053,0.793,0.158,0.914
		c0.148,0.164,0.377,0.246,0.686,0.246h0.275v0.217h-3.369v-0.217h0.281c0.336,0,0.574-0.102,0.715-0.305
		c0.086-0.125,0.129-0.41,0.129-0.855v-6.07h-0.955c-0.371,0-0.635,0.027-0.791,0.082c-0.203,0.074-0.377,0.217-0.521,0.428
		s-0.23,0.496-0.258,0.855h-0.223l0.094-1.863H121.866z"/>
	<path fill="#7F7F7F" d="M131.582,20.43h-3.076l-0.539,1.253c-0.133,0.309-0.199,0.539-0.199,0.691c0,0.121,0.058,0.229,0.173,0.32
		s0.364,0.15,0.747,0.178v0.217h-2.502v-0.217c0.332-0.059,0.547-0.135,0.645-0.229c0.199-0.188,0.42-0.568,0.662-1.143l2.795-6.539
		h0.205l2.766,6.609c0.223,0.531,0.425,0.877,0.606,1.035s0.435,0.246,0.759,0.266v0.217h-3.135v-0.217
		c0.316-0.016,0.53-0.068,0.642-0.158s0.167-0.199,0.167-0.328c0-0.172-0.078-0.443-0.234-0.814L131.582,20.43z M131.418,19.997
		l-1.348-3.211l-1.383,3.211H131.418z"/>
	<path fill="#7F7F7F" d="M147.667,23.09h-2.121l-2.689-3.714c-0.199,0.008-0.361,0.012-0.486,0.012
		c-0.051,0-0.105-0.001-0.164-0.003s-0.119-0.005-0.182-0.009v2.308c0,0.5,0.055,0.811,0.164,0.932
		c0.148,0.172,0.371,0.258,0.668,0.258h0.311v0.217h-3.404v-0.217h0.299c0.336,0,0.576-0.109,0.721-0.328
		c0.082-0.121,0.123-0.408,0.123-0.861v-5.132c0-0.5-0.055-0.811-0.164-0.932c-0.152-0.172-0.379-0.258-0.68-0.258h-0.299v-0.217
		h2.895c0.844,0,1.466,0.062,1.866,0.185s0.74,0.35,1.02,0.68s0.419,0.724,0.419,1.181c0,0.488-0.159,0.912-0.478,1.271
		s-0.812,0.613-1.479,0.762l1.641,2.279c0.375,0.523,0.697,0.871,0.967,1.043s0.621,0.281,1.055,0.328V23.09z M142.024,19.006
		c0.074,0,0.139,0.001,0.193,0.003s0.1,0.003,0.135,0.003c0.758,0,1.329-0.164,1.714-0.492s0.577-0.746,0.577-1.254
		c0-0.496-0.155-0.899-0.466-1.21s-0.722-0.466-1.233-0.466c-0.227,0-0.533,0.037-0.92,0.111V19.006z"/>
</g>
</svg>
