<?xml version="1.0" encoding="utf-8"?>
<!-- Generator: Adobe Illustrator 16.2.1, SVG Export Plug-In . SVG Version: 6.00 Build 0)  -->
<!DOCTYPE svg PUBLIC "-//W3C//DTD SVG 1.1//EN" "http://www.w3.org/Graphics/SVG/1.1/DTD/svg11.dtd">
<svg version="1.1" id="Layer_1" xmlns="http://www.w3.org/2000/svg" xmlns:xlink="http://www.w3.org/1999/xlink" x="0px" y="0px"
	 width="46.403px" height="8.686px" viewBox="0 0 46.403 8.686" enable-background="new 0 0 46.403 8.686" xml:space="preserve">
<g opacity="0.87">
	<path fill="#90624D" d="M0.237,3.277C0.235,3.313,0.23,3.348,0.227,3.381C0.224,3.429,0.22,3.478,0.215,3.526L0.209,3.572
		C0.194,3.7,0.182,3.833,0.182,3.969c-0.23,0.25-0.188,0.324-0.156,0.383c0.016,0.022,0.04,0.042,0.067,0.05
		C0.121,4.41,0.151,4.404,0.175,4.388c0.011-0.007,0.024-0.014,0.037-0.021c0.007,0.057,0.014,0.118,0.024,0.175
		c0.002,0.002,0.002,0.005,0.002,0.007C0.194,4.619,0.188,4.676,0.22,4.734c0.014,0.023,0.038,0.041,0.064,0.05
		c0.002,0,0.002,0,0.005,0c0.024,0.093,0.049,0.173,0.077,0.253C0.386,5.09,0.4,5.148,0.418,5.204
		c0.017,0.059,0.035,0.119,0.056,0.179c-0.108,0.143-0.089,0.18-0.062,0.224c0.029,0.052,0.093,0.069,0.145,0.04L0.6,5.619
		C0.634,5.667,0.671,5.709,0.707,5.75C0.64,5.871,0.66,5.911,0.679,5.943C0.695,5.968,0.728,5.992,0.758,6
		C0.792,6.007,0.834,6,0.895,5.97c0.026,0.034,0.049,0.064,0.073,0.1C0.91,6.2,0.936,6.25,0.952,6.279
		c0.015,0.025,0.05,0.053,0.08,0.059C1.049,6.338,1.08,6.345,1.158,6.315c0.009,0.006,0.016,0.017,0.025,0.023
		c0.128,0.114,0.277,0.22,0.426,0.307c0.062,0.037,0.127,0.062,0.19,0.081c0.004,0.013,0.007,0.025,0.016,0.037
		c0.014,0.025,0.038,0.042,0.063,0.051C1.9,6.819,1.914,6.821,1.997,6.781c0.035,0.01,0.071,0.021,0.106,0.033l0.035,0.01
		c0.146,0.054,0.296,0.103,0.463,0.125l0.068,0.009C2.812,6.979,2.961,7,3.119,6.991c0.125-0.007,0.246-0.037,0.362-0.066
		C3.53,6.912,3.578,6.901,3.627,6.889c0.182-0.04,0.338-0.116,0.503-0.197c0.05-0.024,0.103-0.047,0.154-0.064
		C4.4,6.578,4.523,6.53,4.622,6.442c0.104-0.093,0.168-0.208,0.229-0.323c0.026-0.045,0.05-0.094,0.08-0.135
		C4.96,5.939,4.993,5.893,5.028,5.85c0.077-0.101,0.156-0.204,0.2-0.335c0.036-0.117,0.042-0.238,0.043-0.357
		C5.451,4.96,5.411,4.891,5.378,4.835C5.355,4.797,5.314,4.777,5.274,4.784C5.265,4.685,5.25,4.585,5.232,4.486L5.224,4.43
		c-0.017-0.101-0.04-0.205-0.08-0.309C5.167,4.104,5.189,4.086,5.21,4.069c0.043-0.035,0.055-0.097,0.022-0.143
		C5.202,3.879,5.139,3.865,5.09,3.893L5.047,3.918C5.038,3.905,5.03,3.891,5.021,3.877C4.997,3.84,4.971,3.804,4.943,3.766
		C4.965,3.74,4.988,3.714,5.01,3.688c0.03-0.035,0.033-0.085,0.013-0.123C4.997,3.521,4.957,3.492,4.907,3.483
		C4.856,3.475,4.795,3.489,4.726,3.52C4.704,3.499,4.683,3.477,4.657,3.459C4.622,3.431,4.584,3.412,4.544,3.392
		c0-0.017-0.007-0.038-0.021-0.054C4.487,3.296,4.424,3.287,4.379,3.321c0,0.001-0.002,0.001-0.002,0.003
		C4.331,3.308,4.282,3.293,4.235,3.277C4.199,3.268,4.163,3.258,4.126,3.246C4.109,3.239,4.09,3.237,4.074,3.232
		C4.093,3.196,4.09,3.15,4.064,3.116C4.045,3.09,4.014,3.074,3.979,3.074c-0.018,0-0.035,0.007-0.05,0.016L3.763,3.184
		c-0.062-0.002-0.131,0-0.196,0.005C3.414,3.205,3.214,3.237,3.031,3.386C2.889,3.5,2.786,3.632,2.713,3.791l-0.13,0.074
		C2.533,3.894,2.516,3.958,2.545,4.01c0.019,0.035,0.056,0.052,0.092,0.052C2.624,4.208,2.652,4.344,2.736,4.449
		C2.85,4.6,3.053,4.691,3.287,4.691l0,0c0.049,0,0.093-0.008,0.139-0.02h0.001C3.438,4.667,3.45,4.666,3.459,4.663
		c0.104-0.026,0.235-0.109,0.407-0.239C3.94,4.47,4.022,4.541,4.045,4.596c0.021,0.052,0.033,0.118,0.043,0.188
		C3.854,5.054,3.901,5.139,3.925,5.181c0.015,0.025,0.038,0.043,0.066,0.05c0.022,0.005,0.043,0.003,0.062-0.005
		c0,0.002,0,0.004,0,0.004C4.045,5.253,4.035,5.277,4.022,5.302C3.873,5.41,3.714,5.525,3.547,5.642c-0.002,0-0.002,0-0.002,0
		c-0.067,0.039-0.14,0.081-0.211,0.127C3.313,5.77,3.296,5.774,3.277,5.777C3.141,5.798,3.001,5.783,2.862,5.769
		c0.011-0.037,0.007-0.066-0.01-0.096C2.836,5.646,2.811,5.628,2.779,5.621C2.748,5.616,2.717,5.625,2.691,5.646
		C2.66,5.671,2.626,5.699,2.592,5.727C2.493,5.703,2.387,5.667,2.276,5.616c-0.158-0.074-0.29-0.168-0.404-0.288
		C1.78,5.232,1.715,5.117,1.646,4.982C1.657,4.95,1.654,4.914,1.633,4.884C1.621,4.869,1.604,4.86,1.585,4.851L1.576,4.833
		c-0.031-0.061-0.059-0.121-0.085-0.18c0.024-0.021,0.042-0.042,0.067-0.062c0.066-0.064,0.115-0.107,0.07-0.18
		C1.609,4.375,1.574,4.351,1.532,4.344c-0.036-0.008-0.076,0-0.125,0.017c-0.01-0.054-0.02-0.109-0.029-0.16
		C1.39,4.187,1.404,4.172,1.416,4.158c0.037-0.037,0.039-0.097,0.006-0.139C1.407,4,1.381,3.986,1.357,3.981
		c0-0.022-0.005-0.045-0.005-0.066c0-0.019,0.005-0.036,0.005-0.054c0.188-0.17,0.263-0.29,0.203-0.396
		c-0.015-0.024-0.04-0.043-0.069-0.05C1.48,3.414,1.465,3.41,1.434,3.419L1.439,3.4c0.009-0.049,0.019-0.094,0.026-0.142
		C1.47,3.225,1.476,3.194,1.482,3.164c0.026-0.019,0.05-0.036,0.075-0.056c0.071-0.054,0.135-0.1,0.088-0.184
		C1.64,2.918,1.633,2.91,1.625,2.901c0.498-0.353,0.773-0.618,0.65-0.831C2.271,2.065,2.266,2.062,2.264,2.059
		c0.114-0.088,0.229-0.17,0.342-0.234c0.074-0.04,0.165-0.061,0.263-0.082c0.076-0.02,0.155-0.037,0.232-0.067
		c0.153-0.06,0.312-0.106,0.483-0.15c0.07-0.017,0.141-0.043,0.21-0.065c0.099-0.033,0.19-0.066,0.282-0.078
		C4.14,1.375,4.199,1.366,4.26,1.356c0.11-0.02,0.213-0.037,0.328-0.037c0.099,0,0.197,0.012,0.301,0.028
		C4.952,1.356,5.012,1.363,5.071,1.37c0.096,0.009,0.191,0.033,0.288,0.059C5.426,1.446,5.493,1.463,5.56,1.476
		C5.616,1.49,5.671,1.499,5.728,1.507c0.111,0.018,0.217,0.035,0.319,0.064C6.171,1.607,6.29,1.654,6.415,1.704l0.103,0.041
		C6.609,1.779,6.696,1.826,6.79,1.876c0.056,0.032,0.114,0.061,0.175,0.09c0.049,0.022,0.101,0.045,0.153,0.069
		c-0.066,0.086-0.056,0.109-0.03,0.152c0.03,0.05,0.096,0.067,0.146,0.039l0.129-0.075C7.377,2.16,7.396,2.169,7.414,2.18
		C7.443,2.195,7.474,2.21,7.505,2.225C7.471,2.306,7.466,2.38,7.5,2.441c0.015,0.027,0.041,0.045,0.071,0.053
		C7.62,2.502,7.638,2.488,7.708,2.436c0.029-0.022,0.057-0.042,0.086-0.064c0.021,0.015,0.043,0.026,0.066,0.041
		c0.057,0.038,0.116,0.074,0.175,0.11c0.08,0.051,0.161,0.097,0.237,0.153c0.067,0.05,0.13,0.109,0.198,0.168
		c0.057,0.054,0.116,0.106,0.177,0.153c0.033,0.028,0.069,0.052,0.104,0.076C8.728,3.129,8.733,3.161,8.754,3.194
		c0.03,0.052,0.095,0.069,0.146,0.04l0.038-0.024c0.036,0.028,0.073,0.052,0.107,0.08c0.043,0.037,0.087,0.08,0.128,0.123
		c0.003,0.009,0.005,0.017,0.011,0.025C9.198,3.461,9.221,3.48,9.25,3.487c0,0,0,0,0.002,0C9.3,3.537,9.349,3.587,9.4,3.632
		c0.062,0.052,0.122,0.111,0.179,0.17c0.059,0.057,0.116,0.116,0.179,0.17c0.071,0.062,0.15,0.105,0.227,0.149
		c0.073,0.037,0.139,0.075,0.194,0.122c0.059,0.052,0.114,0.108,0.17,0.163c0.061,0.062,0.123,0.123,0.188,0.178
		c0.069,0.062,0.14,0.121,0.214,0.18c0.056,0.045,0.113,0.09,0.167,0.137s0.1,0.105,0.151,0.166
		c0.055,0.071,0.114,0.145,0.187,0.205c0.029,0.023,0.062,0.043,0.093,0.062c-0.019,0.016-0.035,0.034-0.052,0.052
		c-0.04,0.038-0.043,0.099-0.012,0.14c0.033,0.045,0.092,0.057,0.139,0.028l0.167-0.095c0.04,0.019,0.075,0.039,0.104,0.066
		c0.022,0.017,0.042,0.033,0.062,0.055c-0.031,0.062-0.031,0.109-0.005,0.154c0.016,0.025,0.043,0.047,0.073,0.052
		c0.031,0.005,0.062-0.003,0.086-0.022c0.003-0.004,0.007-0.007,0.012-0.008c0.042,0.043,0.083,0.084,0.132,0.121
		c0.012,0.01,0.022,0.017,0.035,0.025l-0.021,0.025c-0.031,0.041-0.03,0.098,0.005,0.136c0.033,0.04,0.09,0.049,0.134,0.022
		c0.033-0.019,0.067-0.039,0.104-0.061c0.065,0.033,0.128,0.064,0.181,0.103c0.059,0.045,0.116,0.093,0.171,0.14
		c0.073,0.059,0.146,0.118,0.222,0.172c0.056,0.037,0.111,0.078,0.165,0.119c0.04,0.032,0.083,0.06,0.123,0.092
		c-0.061,0.088-0.08,0.171-0.033,0.251c0.014,0.025,0.038,0.043,0.065,0.048c0.028,0.009,0.058,0.005,0.082-0.01
		c0.054-0.033,0.111-0.068,0.168-0.104c0.03,0.017,0.059,0.035,0.087,0.052c0.017,0.01,0.033,0.02,0.049,0.031
		C13.559,7,13.56,7.07,13.594,7.129c0.014,0.027,0.042,0.047,0.071,0.052c0.043,0.01,0.061,0.01,0.205-0.091
		c0.059,0.037,0.12,0.073,0.182,0.11c-0.028,0.03-0.056,0.06-0.082,0.09c-0.031,0.032-0.039,0.081-0.016,0.121
		c0.021,0.037,0.056,0.059,0.092,0.066c0.071,0.018,0.173-0.015,0.328-0.099c0.009,0.005,0.019,0.012,0.029,0.015
		c0.062,0.029,0.129,0.062,0.189,0.097c0.061,0.032,0.114,0.081,0.173,0.136c0.035,0.029,0.071,0.062,0.108,0.092
		c-0.02,0.024-0.041,0.047-0.062,0.066c-0.038,0.039-0.038,0.102-0.001,0.144c0.036,0.042,0.098,0.047,0.14,0.015
		c0.052-0.032,0.099-0.066,0.147-0.104c0.059,0.02,0.12,0.039,0.178,0.054c0.073,0.021,0.143,0.037,0.205,0.064
		c0.062,0.025,0.123,0.06,0.186,0.092c0.085,0.047,0.174,0.094,0.271,0.129c0.05,0.017,0.102,0.036,0.152,0.057
		c0.108,0.039,0.213,0.081,0.324,0.111c0.095,0.027,0.196,0.034,0.29,0.044c0.076,0.005,0.147,0.013,0.211,0.025
		c0.097,0.021,0.196,0.039,0.292,0.057c0.001,0.005,0,0.01,0.001,0.015c0.026,0.04,0.064,0.066,0.109,0.074
		c0.052,0.01,0.109-0.008,0.18-0.047c0.09,0.013,0.182,0.02,0.274,0.027l0.118,0.01c0.002,0.01,0,0.02,0.007,0.032
		c0.016,0.029,0.053,0.069,0.116,0.084c0.062,0.015,0.146-0.003,0.248-0.04c0.051,0.008,0.101,0.015,0.152,0.018h0.021
		c0.098,0,0.195-0.013,0.287-0.024c0.066-0.008,0.133-0.015,0.198-0.021c0.025,0,0.054-0.002,0.081-0.005
		c0.03,0.05,0.094,0.064,0.144,0.037l0.103-0.062c0.056-0.005,0.111-0.01,0.176-0.02c0.104-0.015,0.21-0.042,0.309-0.072
		c0.061-0.017,0.121-0.034,0.182-0.047c0.062-0.015,0.127-0.024,0.189-0.034c0.102-0.015,0.207-0.03,0.308-0.062
		c0.111-0.035,0.214-0.085,0.313-0.132c0.049-0.024,0.1-0.052,0.151-0.071C20.88,8.13,20.885,8.13,20.89,8.125
		c0.013,0.005,0.025,0.016,0.037,0.018c0.116,0.018,0.246-0.064,0.411-0.203c0.002,0,0.005-0.002,0.007-0.002
		c0.111-0.064,0.215-0.141,0.314-0.215c0.032-0.025,0.07-0.052,0.104-0.077c0.139-0.102,0.271-0.2,0.4-0.313
		c0.083-0.077,0.151-0.163,0.217-0.248c0.037-0.047,0.072-0.094,0.112-0.138c0.041-0.047,0.094-0.089,0.146-0.134
		c0.078-0.066,0.158-0.134,0.223-0.226c0.032-0.047,0.057-0.098,0.084-0.146c0.012-0.007,0.023-0.015,0.032-0.022
		c0.037-0.024,0.054-0.07,0.043-0.111c0.037-0.074,0.071-0.151,0.105-0.226l0.029-0.069c0.019-0.043,0.039-0.092,0.056-0.139
		c0.014,0.014,0.03,0.024,0.049,0.027c0.028,0.009,0.059,0.004,0.083-0.012c0.002-0.002,0.003-0.002,0.007-0.004
		c0.008,0.02,0.014,0.037,0.024,0.056l0.023,0.06c0.082,0.182,0.176,0.377,0.302,0.557c0.059,0.08,0.125,0.171,0.197,0.26
		c-0.025,0.04-0.022,0.088,0.009,0.122c0.026,0.035,0.073,0.044,0.113,0.03c0.041,0.048,0.076,0.1,0.113,0.151
		c0.058,0.087,0.113,0.174,0.194,0.243c0.038,0.037,0.082,0.071,0.125,0.108C24.42,7.54,24.43,7.56,24.446,7.589
		c0.014,0.024,0.047,0.047,0.074,0.055c0.018,0.005,0.042,0.01,0.119-0.022c0.028,0.022,0.054,0.044,0.086,0.066
		c0.031,0.022,0.065,0.04,0.1,0.057c-0.004,0.035,0.001,0.072,0.021,0.106c0.022,0.04,0.06,0.064,0.104,0.074
		c0.052,0.013,0.116-0.005,0.192-0.039c0.014,0.007,0.031,0.015,0.045,0.022c0.057,0.031,0.108,0.071,0.167,0.116
		c0.079,0.063,0.163,0.128,0.26,0.17c0.103,0.045,0.211,0.069,0.312,0.1c0.061,0.015,0.118,0.029,0.178,0.049
		C26.17,8.366,26.24,8.38,26.31,8.395c0,0.025,0.007,0.05,0.019,0.074c0.017,0.027,0.044,0.047,0.073,0.052
		c0.031,0.006,0.062-0.002,0.087-0.02c0.021-0.02,0.047-0.037,0.068-0.057c0.014,0.005,0.026,0.01,0.04,0.01
		c0.102,0.022,0.201,0.037,0.302,0.055c-0.003,0.037,0,0.074,0.021,0.111c0.014,0.027,0.059,0.057,0.087,0.062
		c0.056,0.015,0.148-0.005,0.343-0.108c0.081,0.015,0.164,0.026,0.247,0.029c0.065,0.003,0.132,0.013,0.197,0.02
		c0.002,0,0.002,0.003,0.004,0.003c0.001,0.002,0.001,0.005,0.005,0.007c0.038,0.04,0.099,0.045,0.144,0.01c0,0,0,0,0.003,0
		c0.043,0.003,0.086,0.006,0.129,0.006h0.118c0.136-0.003,0.275-0.006,0.415-0.018c0.101-0.01,0.198-0.04,0.287-0.067
		c0.017-0.002,0.032-0.01,0.046-0.015c0.005,0.008,0.007,0.018,0.008,0.022c0.019,0.027,0.044,0.047,0.074,0.052
		c0.03,0.008,0.061,0,0.086-0.02c0.052-0.04,0.111-0.084,0.173-0.129c0.042-0.01,0.085-0.02,0.129-0.032
		c0.061-0.017,0.121-0.031,0.182-0.047c0.064-0.015,0.136-0.02,0.211-0.027C29.9,8.363,30,8.356,30.097,8.326
		c0.099-0.026,0.186-0.071,0.271-0.113c0.064-0.032,0.126-0.064,0.191-0.087c0.153-0.054,0.306-0.113,0.468-0.183
		c0.062-0.027,0.125-0.047,0.187-0.069c0.093-0.034,0.189-0.066,0.28-0.113c0.103-0.053,0.201-0.106,0.3-0.163l0.144-0.079
		c0.149-0.082,0.294-0.164,0.438-0.245c0.088-0.055,0.175-0.111,0.26-0.168c0.052-0.037,0.107-0.072,0.163-0.106
		c0.061-0.041,0.125-0.075,0.19-0.11c0.084-0.047,0.166-0.091,0.243-0.145c0.104-0.069,0.207-0.141,0.311-0.214l0.101-0.07
		c0.061-0.047,0.128-0.084,0.193-0.122c0.078-0.047,0.158-0.092,0.231-0.15c0.078-0.053,0.144-0.117,0.206-0.18
		c0.055-0.057,0.109-0.108,0.169-0.156c0.061-0.045,0.124-0.088,0.187-0.131c0.074-0.053,0.149-0.103,0.22-0.162
		c0.073-0.053,0.138-0.119,0.199-0.18c0.058-0.056,0.11-0.109,0.171-0.158c0.117-0.097,0.235-0.193,0.352-0.295l0.505-0.342
		c0.025-0.018,0.041-0.043,0.044-0.072l0.049-0.041c0.071-0.061,0.142-0.122,0.213-0.18c0.065-0.06,0.122-0.129,0.178-0.193
		c0.053-0.062,0.104-0.12,0.16-0.17l0.116-0.102c0.086-0.075,0.171-0.149,0.256-0.222c0.059-0.051,0.127-0.09,0.199-0.133
		c0.07-0.045,0.144-0.088,0.212-0.144c0.126-0.104,0.254-0.205,0.383-0.306c0.073-0.057,0.149-0.107,0.224-0.156
		c0.061-0.041,0.121-0.08,0.181-0.123c0.057-0.042,0.112-0.087,0.166-0.128c0.072-0.059,0.146-0.116,0.224-0.17
		c0.047-0.029,0.093-0.061,0.137-0.093c0.096-0.066,0.185-0.128,0.279-0.183c0.086-0.05,0.177-0.088,0.272-0.129
		c0.063-0.026,0.121-0.05,0.182-0.082c0.08-0.036,0.148-0.086,0.215-0.137c0.076-0.052,0.143-0.102,0.214-0.131
		c0.097-0.037,0.198-0.062,0.303-0.088c0.062-0.014,0.122-0.029,0.183-0.046c0.099-0.03,0.203-0.045,0.312-0.062
		c0.006,0,0.015-0.004,0.023-0.005c0.004,0.001,0.011,0.007,0.016,0.007c0.03,0.007,0.083-0.005,0.16-0.035
		c0.089-0.016,0.177-0.02,0.271-0.022c0.068-0.002,0.136-0.004,0.201-0.01c0.066-0.005,0.133-0.016,0.198-0.026
		c0.001,0,0.004,0,0.009-0.001v0.001c0.027,0.05,0.095,0.067,0.147,0.039l0.114-0.066c0.009,0,0.015-0.001,0.023-0.001h0.003
		c0.102,0.001,0.2,0.019,0.308,0.034c0.06,0.011,0.12,0.021,0.183,0.028c0.049,0.007,0.097,0.009,0.146,0.009l0.18-0.003
		c0.056,0,0.125,0.001,0.192,0.017c0.09,0.022,0.173,0.067,0.267,0.116c0.066,0.033,0.135,0.067,0.204,0.093
		c0.061,0.024,0.123,0.043,0.188,0.062c0.104,0.035,0.204,0.067,0.291,0.116l0.104,0.058c0.107,0.057,0.212,0.119,0.305,0.188
		c-0.175,0.213-0.146,0.267-0.122,0.309c0.014,0.024,0.037,0.043,0.066,0.05c0.026,0.007,0.057,0.001,0.081-0.013
		c0.065-0.04,0.138-0.083,0.212-0.13c0.052,0.056,0.103,0.111,0.147,0.172c0.062,0.074,0.1,0.173,0.141,0.279
		c0.02,0.062,0.044,0.123,0.072,0.181c0.019,0.043,0.041,0.084,0.065,0.128c0.021,0.045,0.044,0.088,0.064,0.13
		c-0.058,0.057-0.115,0.114-0.171,0.167c-0.04,0.036-0.044,0.099-0.012,0.14c0.032,0.045,0.093,0.056,0.14,0.03l0.125-0.071
		c0.03,0.162,0.048,0.315,0.049,0.456c0,0.082-0.02,0.168-0.044,0.255c-0.026,0.024-0.052,0.047-0.077,0.071
		c-0.039,0.033-0.048,0.088-0.022,0.131c0.009,0.014,0.022,0.025,0.036,0.037c0,0.003-0.001,0.01-0.002,0.014
		c-0.012,0.055-0.021,0.112-0.028,0.168c-0.002,0.019-0.006,0.037-0.009,0.057c-0.59,0.309-1.276,0.697-1.798,1.077l-0.078-0.013
		C43,5.695,42.861,5.678,42.759,5.611c-0.082-0.054-0.155-0.13-0.212-0.219c0.061-0.125,0.032-0.178,0.015-0.208
		c-0.015-0.024-0.04-0.042-0.067-0.049c-0.017-0.005-0.034-0.003-0.052,0.002c-0.012-0.062-0.021-0.128-0.021-0.199l0.067-0.09
		c0.026-0.034,0.027-0.081,0.007-0.116c-0.01-0.021-0.03-0.035-0.047-0.047c0.005-0.031,0.014-0.062,0.024-0.089
		c0.031-0.079,0.215-0.206,0.302-0.229c0.064,0.142,0.155,0.244,0.267,0.302c0.005,0.016,0.01,0.027,0.018,0.038
		c0.013,0.024,0.036,0.042,0.062,0.05c0.03,0.008,0.059,0.002,0.082-0.012l0.038-0.021c0.156-0.002,0.314-0.095,0.46-0.267
		l0.242-0.14c0.052-0.029,0.069-0.095,0.04-0.147c-0.021-0.035-0.059-0.052-0.098-0.051c0.015-0.083,0.015-0.18-0.027-0.284
		c0-0.003-0.003-0.005-0.003-0.009c0.003-0.029-0.004-0.059-0.024-0.083c-0.009-0.008-0.019-0.017-0.031-0.024
		c-0.081-0.144-0.197-0.247-0.311-0.337c-0.089-0.072-0.179-0.125-0.271-0.163c0.005-0.03,0.002-0.061-0.016-0.087
		c-0.02-0.027-0.054-0.043-0.087-0.043c-0.019,0-0.038,0.004-0.056,0.014l-0.09,0.052c-0.005,0-0.012-0.001-0.018-0.003
		c-0.203-0.019-0.414-0.012-0.58,0.04c-0.156,0.052-0.321,0.142-0.507,0.276c-0.151,0.112-0.254,0.263-0.354,0.409l-0.016,0.022
		c-0.104,0.153-0.171,0.319-0.206,0.529l-0.019,0.11c-0.025,0.136-0.054,0.279-0.043,0.427c0.001,0.042,0.005,0.083,0.005,0.123
		c0.005,0.142,0.013,0.288,0.056,0.427c0.04,0.129,0.121,0.229,0.199,0.326c0.037,0.045,0.073,0.09,0.103,0.137
		c0.017,0.024,0.031,0.042,0.048,0.064c-0.058,0.049-0.118,0.099-0.177,0.146c-0.04,0.032-0.052,0.091-0.025,0.136
		c0.016,0.025,0.042,0.045,0.069,0.05c0.032,0.01,0.058,0.015,0.304-0.121c0.043,0.044,0.084,0.091,0.134,0.134
		c0.03,0.029,0.062,0.059,0.093,0.088c0.098,0.095,0.197,0.188,0.331,0.257c0.02,0.009,0.034,0.014,0.056,0.021
		c0.008,0.03,0.018,0.059,0.031,0.083c0.016,0.027,0.038,0.045,0.066,0.051c0.027,0.007,0.057,0.004,0.082-0.011l0.082-0.046
		c0.03,0.005,0.058,0.01,0.086,0.016c0.041,0.008,0.083,0.018,0.125,0.025c0.168,0.034,0.333,0.069,0.505,0.08h0.031
		c0.174,0.011,0.348,0.014,0.484-0.005c0.075-0.009,0.147-0.029,0.217-0.053c0.017,0.015,0.039,0.028,0.06,0.034
		c0.035,0.008,0.135,0.027,0.736-0.355c0.038-0.021,0.074-0.039,0.112-0.057c0.103-0.045,0.208-0.094,0.298-0.172
		c0.047-0.041,0.091-0.09,0.134-0.136c0.014-0.01,0.026-0.017,0.04-0.026c0.02-0.016,0.033-0.037,0.038-0.061
		c0.049-0.056,0.095-0.113,0.139-0.167c0.062-0.076,0.105-0.163,0.146-0.249c0.424-0.382,0.371-0.471,0.344-0.524
		c-0.017-0.022-0.036-0.04-0.062-0.05c0.013-0.033,0.026-0.061,0.039-0.094c0.005-0.012,0.01-0.024,0.015-0.038
		c0.218-0.2,0.268-0.326,0.209-0.427c-0.011-0.019-0.025-0.031-0.043-0.039c0.028-0.164,0.036-0.33,0.043-0.499
		c0.005-0.11-0.011-0.22-0.028-0.324c0.021-0.033,0.026-0.074,0.005-0.109c-0.002-0.01-0.015-0.021-0.025-0.028
		c0-0.017-0.006-0.037-0.007-0.052c-0.007-0.058-0.007-0.116-0.011-0.176c-0.003-0.11-0.007-0.225-0.037-0.339
		c-0.017-0.057-0.038-0.113-0.06-0.168c0.054-0.092,0.042-0.122,0.021-0.153c-0.021-0.038-0.063-0.057-0.104-0.052
		c-0.016-0.039-0.032-0.073-0.049-0.109c-0.053-0.12-0.123-0.222-0.19-0.317c-0.034-0.047-0.064-0.092-0.095-0.137
		c-0.1-0.161-0.202-0.301-0.312-0.43c-0.067-0.076-0.138-0.143-0.211-0.211c0.036-0.033,0.074-0.067,0.11-0.101
		c0.037-0.033,0.047-0.088,0.023-0.132c-0.017-0.024-0.042-0.045-0.072-0.052c-0.052-0.012-0.081,0-0.251,0.12
		c-0.065-0.06-0.133-0.111-0.202-0.162c0.014-0.029,0.017-0.066-0.003-0.097c-0.023-0.042-0.065-0.069-0.116-0.078
		c-0.032-0.007-0.073,0.001-0.116,0.014c-0.044-0.032-0.088-0.067-0.131-0.104c-0.008-0.005-0.016-0.01-0.021-0.017
		c0.004-0.037-0.005-0.054-0.016-0.073c-0.015-0.024-0.037-0.043-0.065-0.05c-0.024-0.007-0.051-0.001-0.073,0.008
		c-0.03-0.02-0.061-0.043-0.095-0.059C44.152,0.6,44.05,0.565,43.949,0.534c-0.018-0.018-0.036-0.033-0.058-0.037
		c-0.016-0.003-0.032-0.003-0.053-0.002c-0.029-0.01-0.061-0.019-0.09-0.029l-0.073-0.026c-0.141-0.051-0.283-0.103-0.431-0.136
		c-0.12-0.029-0.235-0.052-0.353-0.073c-0.004-0.01-0.012-0.021-0.017-0.033c-0.015-0.026-0.038-0.043-0.065-0.049
		c-0.029-0.009-0.061-0.004-0.083,0.014c-0.02,0.01-0.038,0.024-0.059,0.036c-0.087-0.007-0.177-0.007-0.268-0.005
		c-0.069,0.004-0.139,0.007-0.206,0.002c-0.056-0.002-0.109-0.003-0.165-0.005c-0.013-0.024-0.043-0.045-0.071-0.05
		c-0.032-0.01-0.09,0.002-0.19,0.049c-0.033,0-0.065-0.001-0.099,0l-0.12,0.003c-0.112,0.001-0.225,0.007-0.341,0.015
		c-0.002-0.007-0.004-0.017-0.009-0.026c-0.014-0.026-0.045-0.061-0.104-0.074c-0.01-0.002-0.024-0.003-0.039-0.003
		c-0.134,0-0.4,0.109-0.743,0.284c-0.022,0.007-0.046,0.014-0.069,0.019l-0.122,0.039c-0.063,0.017-0.127,0.031-0.191,0.046
		c-0.105,0.022-0.213,0.047-0.319,0.087l-0.039,0.018c-0.138,0.054-0.282,0.107-0.42,0.173c-0.104,0.047-0.205,0.105-0.308,0.163
		c-0.041,0.022-0.084,0.05-0.127,0.073c-0.059,0.031-0.116,0.059-0.172,0.086c-0.091,0.045-0.181,0.09-0.271,0.144
		c-0.054,0.033-0.113,0.067-0.17,0.099c-0.086,0.048-0.174,0.097-0.256,0.154c-0.079,0.055-0.142,0.126-0.202,0.196
		c-0.053,0.059-0.101,0.114-0.153,0.152c-0.054,0.041-0.12,0.073-0.189,0.106c-0.068,0.032-0.136,0.066-0.2,0.109
		c-0.459,0.244-0.919,0.496-1.353,0.749c0-0.019-0.003-0.038-0.005-0.057c-0.013-0.076-0.03-0.149-0.045-0.224l0.002-0.003
		c0.038-0.042,0.038-0.104,0.002-0.144c-0.016-0.019-0.037-0.03-0.06-0.033c-0.017-0.051-0.03-0.101-0.051-0.151
		c-0.056-0.139-0.146-0.249-0.232-0.355c-0.021-0.028-0.04-0.054-0.062-0.082c0.005-0.051-0.009-0.08-0.018-0.094
		c-0.021-0.035-0.052-0.05-0.086-0.052c0-0.002-0.003-0.003-0.003-0.003c-0.047-0.065-0.088-0.132-0.144-0.195
		c0.034-0.044,0.023-0.103-0.013-0.139c-0.041-0.033-0.095-0.033-0.137-0.005c-0.088-0.071-0.193-0.137-0.318-0.2
		c-0.04-0.062-0.101-0.102-0.181-0.118c-0.03-0.005-0.061-0.005-0.096-0.001c-0.119-0.037-0.246-0.06-0.367-0.079l-0.076-0.014
		c-0.048-0.009-0.097-0.021-0.147-0.033c-0.112-0.028-0.233-0.058-0.357-0.049c-0.121,0.007-0.233,0.049-0.341,0.09
		c-0.05,0.017-0.102,0.036-0.149,0.05c-0.163,0.047-0.306,0.125-0.454,0.21c-0.17,0.095-0.293,0.185-0.405,0.294
		c-0.032,0.033-0.064,0.064-0.103,0.092c-0.093,0.083-0.189,0.165-0.25,0.288c-0.076,0.149-0.132,0.322-0.155,0.5
		c-0.021,0.144,0.01,0.286,0.049,0.423c-0.025,0.039-0.025,0.088,0.004,0.127c0.013,0.012,0.027,0.022,0.043,0.029l0.004,0.014
		c0.013,0.038,0.022,0.076,0.033,0.116c0.027,0.108,0.059,0.218,0.109,0.321c-0.057,0.085-0.073,0.151-0.038,0.213
		c0.014,0.026,0.039,0.042,0.065,0.05c0.025,0.006,0.056,0.003,0.08-0.011l0.056-0.031c0.107,0.102,0.237,0.173,0.354,0.239
		l0.035,0.02c0.218,0.122,0.396,0.167,0.592,0.144c0.186-0.02,0.365-0.107,0.549-0.256c0.042-0.037,0.078-0.075,0.111-0.111
		l0.048-0.029c0.046-0.026,0.063-0.075,0.051-0.121c0.047-0.101,0.064-0.205,0.044-0.304c-0.005-0.023-0.018-0.043-0.026-0.064
		c0.107-0.109,0.126-0.149,0.088-0.217c-0.028-0.05-0.093-0.067-0.147-0.038l-0.062,0.035c-0.073-0.087-0.162-0.158-0.259-0.2
		c-0.149-0.064-0.326-0.042-0.494,0.061c-0.033-0.067-0.07-0.144-0.074-0.163c0.015-0.111,0.05-0.195,0.114-0.266
		c0.124-0.144,0.308-0.236,0.507-0.253c0.044-0.002,0.09-0.011,0.137-0.016c0.13-0.019,0.252-0.03,0.342-0.002
		c0.117,0.037,0.221,0.13,0.323,0.222l0.065,0.057c0.12,0.106,0.204,0.228,0.254,0.37c0.042,0.121,0.066,0.226,0.078,0.326
		c-0.012,0.043-0.003,0.061,0.008,0.083c0.003,0.002,0.003,0.002,0.003,0.002c0,0.012,0.004,0.022,0.004,0.035
		c0.005,0.19-0.013,0.332-0.054,0.453c-0.005,0.017-0.011,0.035-0.019,0.054c-0.68,0.475-1.167,0.921-1.283,1.274
		c-0.021,0.065-0.029,0.128-0.027,0.188c-1.094,0.574-2.179,1.194-2.982,1.771c-0.177,0.094-0.371,0.205-0.57,0.334
		c-0.042,0.017-0.085,0.037-0.125,0.059c-0.081,0.042-0.158,0.079-0.233,0.097l-0.095,0.02c-0.105,0.027-0.214,0.05-0.323,0.069
		c-0.022-0.007-0.037-0.012-0.076,0.01c-0.001,0-0.001,0-0.001,0c-0.091,0.016-0.185,0.008-0.28,0c-0.059,0-0.116-0.005-0.173-0.005
		l-0.081,0.003c-0.078,0-0.158-0.013-0.244-0.022c-0.069-0.01-0.135-0.018-0.204-0.024c-0.069-0.003-0.142,0-0.215,0.005
		c-0.01,0-0.021,0-0.029,0c0.014-0.037,0.012-0.069-0.008-0.104c-0.028-0.053-0.095-0.069-0.145-0.037l-0.192,0.108
		c-0.054-0.013-0.108-0.032-0.164-0.05c-0.063-0.017-0.128-0.039-0.195-0.057c-0.068-0.02-0.145-0.029-0.22-0.037
		c-0.088-0.013-0.171-0.024-0.248-0.052c0.095-0.145,0.076-0.181,0.053-0.22c-0.015-0.025-0.057-0.055-0.087-0.06
		c-0.062-0.015-0.14,0.018-0.281,0.113c-0.038-0.021-0.075-0.047-0.112-0.065c-0.044-0.021-0.084-0.043-0.124-0.067
		c-0.004-0.018-0.009-0.035-0.019-0.05c-0.015-0.028-0.038-0.046-0.068-0.052c-0.021-0.007-0.043,0-0.063,0.006
		c-0.025-0.014-0.049-0.028-0.073-0.046l-0.06-0.039c-0.062-0.04-0.131-0.071-0.194-0.104c-0.084-0.039-0.165-0.076-0.224-0.128
		c-0.048-0.045-0.095-0.095-0.14-0.144c0-0.002,0-0.002-0.002-0.004c-0.009-0.016-0.021-0.025-0.032-0.035
		c-0.047-0.053-0.096-0.109-0.146-0.172c-0.008-0.012-0.012-0.023-0.019-0.032l0.035-0.043c0.027-0.034,0.031-0.081,0.006-0.12
		c-0.012-0.025-0.038-0.045-0.065-0.052c-0.025-0.005-0.047-0.005-0.081,0.007c-0.002-0.005-0.005-0.01-0.008-0.018
		c-0.023-0.057-0.048-0.112-0.074-0.168c-0.004-0.002-0.004-0.005-0.005-0.009l0.005-0.009c0.031-0.043,0.024-0.102-0.016-0.137
		c-0.021-0.022-0.049-0.031-0.074-0.029c-0.022-0.049-0.042-0.101-0.061-0.15l0.123-0.156c0.027-0.035,0.028-0.082,0.009-0.119
		c-0.015-0.023-0.042-0.046-0.069-0.051c-0.023-0.008-0.051-0.012-0.183,0.052c-0.001-0.003-0.004-0.009-0.005-0.013
		c-0.044-0.083-0.083-0.164-0.096-0.242c-0.013-0.081,0-0.17,0.013-0.266c0.01-0.068,0.021-0.137,0.021-0.206
		c0.003-0.052,0-0.106-0.003-0.158c-0.003-0.107-0.008-0.209,0.014-0.307c0.016-0.078,0.039-0.16,0.068-0.245
		c0.072-0.087,0.125-0.167,0.146-0.241c0.012-0.046,0.014-0.088,0.01-0.121c0.068-0.118,0.159-0.23,0.255-0.349
		c0.12-0.144,0.248-0.242,0.395-0.307c0.079-0.033,0.165-0.061,0.254-0.08c0.01,0.008,0.025,0.015,0.04,0.017
		c0.032,0.005,0.062-0.002,0.086-0.023c0.013-0.008,0.025-0.019,0.035-0.026c0.004,0,0.006-0.002,0.008-0.002
		c0.048-0.007,0.098-0.014,0.146-0.022c0.103-0.019,0.21-0.037,0.311-0.032c0.187,0.013,0.335,0.039,0.448,0.079
		c0.134,0.046,0.229,0.16,0.319,0.267c0.021,0.026,0.039,0.054,0.054,0.08c-0.127,0.188-0.09,0.255-0.068,0.291
		c0.019,0.033,0.053,0.059,0.095,0.067c0.013,0.002,0.027,0.002,0.043,0c0.002,0.028,0.002,0.054,0.007,0.082
		c-0.148,0.203-0.109,0.273-0.087,0.309c0.029,0.053,0.096,0.068,0.146,0.039l0.098-0.056c0.035,0.035,0.069,0.066,0.109,0.094
		c0.092,0.059,0.202,0.08,0.327,0.069c0.017,0.012,0.033,0.023,0.049,0.026c0.061,0.012,0.119-0.014,0.243-0.099
		c0.069-0.028,0.178-0.08,0.259-0.179c0.006-0.007,0.015-0.011,0.023-0.018c0.016,0,0.032-0.003,0.046-0.012
		c0.049-0.03,0.068-0.094,0.039-0.146c-0.008-0.008-0.014-0.015-0.022-0.024c0.002-0.021,0.009-0.04,0.01-0.062
		c0.012-0.215-0.001-0.39-0.035-0.536c-0.017-0.062-0.042-0.121-0.072-0.175c0.035-0.034,0.044-0.087,0.018-0.128
		c-0.014-0.026-0.041-0.045-0.07-0.052c-0.02-0.005-0.037-0.005-0.056,0c-0.003-0.004-0.005-0.007-0.008-0.013
		c-0.023-0.031-0.047-0.067-0.069-0.1c-0.01-0.019-0.021-0.042-0.034-0.064c0.007-0.004,0.014-0.011,0.02-0.016
		c0.041-0.037,0.049-0.096,0.018-0.142c-0.032-0.045-0.094-0.06-0.14-0.032L27.71,1.992c-0.042-0.067-0.09-0.131-0.154-0.187
		c-0.098-0.088-0.216-0.144-0.33-0.2c-0.025-0.012-0.052-0.026-0.077-0.038c0.024-0.033,0.029-0.078,0.007-0.114
		c-0.025-0.047-0.071-0.077-0.126-0.087c-0.056-0.01-0.134,0.003-0.223,0.036c-0.06-0.022-0.117-0.05-0.181-0.069
		c-0.034-0.009-0.065-0.014-0.1-0.018c-0.003-0.003-0.004-0.007-0.004-0.008c-0.034-0.041-0.094-0.05-0.139-0.022
		c-0.009,0.003-0.014,0.007-0.021,0.012c-0.026-0.002-0.052-0.005-0.077-0.005c-0.058-0.002-0.113-0.004-0.172-0.011l-0.025-0.003
		c-0.104-0.012-0.212-0.021-0.316-0.024c-0.017-0.021-0.037-0.036-0.061-0.041c-0.012-0.004-0.021-0.006-0.03-0.006
		c-0.02,0-0.046,0.011-0.1,0.043c-0.051,0.002-0.102,0.002-0.152,0c-0.13-0.003-0.247-0.003-0.341,0.021
		c-0.122,0.031-0.221,0.097-0.315,0.159c-0.049,0.032-0.098,0.064-0.146,0.09c-0.151,0.076-0.285,0.162-0.41,0.255l-0.034,0.028
		c-0.115,0.085-0.232,0.177-0.335,0.29c-0.031,0.037-0.068,0.071-0.104,0.106c-0.077,0.08-0.159,0.161-0.221,0.26l-0.037,0.057
		c-0.065,0.104-0.134,0.215-0.187,0.33c-0.003-0.004-0.003-0.007-0.005-0.009c-0.021-0.036-0.052-0.059-0.095-0.067
		c-0.011-0.003-0.021-0.003-0.038-0.003c-0.03-0.049-0.065-0.097-0.103-0.142c-0.036-0.045-0.073-0.092-0.102-0.141
		c-0.032-0.047-0.054-0.099-0.081-0.151c-0.012-0.019-0.02-0.04-0.032-0.059l0.056-0.085c0.028-0.043,0.022-0.099-0.015-0.135
		c-0.035-0.035-0.093-0.04-0.133-0.012c-0.012,0.009-0.025,0.018-0.038,0.026c-0.004-0.003-0.005-0.007-0.006-0.008
		c-0.129-0.143-0.245-0.253-0.361-0.344c-0.057-0.042-0.12-0.078-0.181-0.109c0.009-0.029,0.009-0.059-0.005-0.085
		c-0.024-0.045-0.065-0.071-0.116-0.082c-0.048-0.01-0.107-0.002-0.181,0.023c-0.081-0.04-0.175-0.075-0.271-0.107
		c-0.001-0.004-0.004-0.009-0.006-0.013c-0.032-0.038-0.084-0.05-0.129-0.029c-0.014-0.005-0.025-0.007-0.038-0.012l-0.101-0.024
		c-0.131-0.036-0.267-0.073-0.409-0.082c-0.118-0.007-0.239,0.014-0.352,0.033c-0.056,0.011-0.108,0.019-0.164,0.026
		c-0.057,0.007-0.113,0.009-0.173,0.013c-0.115,0.001-0.231,0.005-0.345,0.04c-0.129,0.038-0.246,0.104-0.356,0.168
		c-0.035,0.021-0.074,0.042-0.111,0.061c-0.034,0.019-0.066,0.037-0.101,0.053c-0.124,0.063-0.249,0.126-0.353,0.218
		c-0.098,0.084-0.151,0.198-0.201,0.307C18.734,2.16,18.709,2.21,18.68,2.255c-0.045,0.077-0.094,0.16-0.138,0.248
		C18.54,2.505,18.54,2.505,18.54,2.505c-0.044,0.024-0.062,0.075-0.047,0.122c-0.013,0.031-0.025,0.064-0.034,0.1
		c-0.034,0.146-0.047,0.307-0.034,0.517c0.002,0.05,0.011,0.095,0.02,0.137c-0.002,0-0.004,0.003-0.007,0.005
		c-0.051,0.033-0.062,0.097-0.03,0.147c0.028,0.042,0.08,0.057,0.125,0.04c0.061,0.082,0.141,0.13,0.212,0.158
		c0.08,0.032,0.164,0.043,0.249,0.045c0.008,0.001,0.018,0.003,0.028,0.001c0.118-0.003,0.231-0.031,0.32-0.088
		c0.068-0.045,0.116-0.105,0.152-0.175c0.023-0.014,0.047-0.028,0.073-0.043c0.051-0.031,0.066-0.096,0.034-0.146
		c-0.01-0.018-0.025-0.03-0.041-0.039c0.003-0.045,0.009-0.093,0.005-0.144c-0.007-0.126,0.043-0.244,0.152-0.374
		c0.112-0.139,0.221-0.224,0.335-0.262c0.1-0.035,0.229-0.061,0.371-0.075c-0.013,0.03-0.015,0.062,0.003,0.092
		c0.015,0.026,0.044,0.047,0.073,0.054c0.056,0.011,0.1-0.008,0.28-0.14c0.039,0.005,0.079,0.009,0.121,0.016l0.063,0.006
		c0.067,0.009,0.128,0.021,0.188,0.034c-0.021,0.04-0.016,0.088,0.017,0.123c0.037,0.038,0.098,0.043,0.142,0.01
		c0.027-0.021,0.058-0.044,0.085-0.064c0.005,0,0.009,0.003,0.01,0.003c0.12,0.053,0.21,0.165,0.306,0.286l0.058,0.071
		c0.105,0.126,0.193,0.271,0.266,0.424c-0.053,0.083-0.07,0.162-0.03,0.232c0.018,0.025,0.052,0.052,0.081,0.06
		c0.022,0.003,0.045,0.003,0.071-0.002c0.033,0.086,0.055,0.165,0.072,0.239c0.008,0.038,0.018,0.078,0.026,0.116
		c0.024,0.105,0.047,0.205,0.052,0.303c-0.053,0.029-0.097,0.052-0.121,0.061c-0.018,0-0.035,0.005-0.048,0.014
		c-0.053,0.029-0.072,0.096-0.04,0.146c0.014,0.025,0.04,0.045,0.066,0.05c0.026,0.009,0.047,0.015,0.142-0.031
		c-0.008,0.083-0.017,0.169-0.028,0.255c-0.011,0.012-0.019,0.023-0.022,0.038c-0.005,0.02-0.001,0.04,0.004,0.058
		c-0.026,0.135-0.056,0.262-0.095,0.373c-0.012,0.034-0.021,0.066-0.032,0.102c-0.024,0.02-0.036,0.047-0.04,0.074
		c-0.366,0.271-0.656,0.539-0.716,0.742c-0.03,0.104-0.004,0.178,0.02,0.221c0.001,0.004,0.006,0.007,0.009,0.01
		c-0.008,0.006-0.012,0.012-0.019,0.018c-0.069,0.062-0.153,0.111-0.242,0.162c-0.052,0.03-0.104,0.058-0.156,0.094
		c-0.051,0.033-0.099,0.068-0.146,0.104c-0.085,0.061-0.164,0.12-0.25,0.162c-0.027,0.011-0.052,0.023-0.078,0.037
		c-0.003-0.002-0.005-0.003-0.008-0.003c-0.053-0.013-0.108,0.005-0.315,0.146c-0.013,0.002-0.026,0.01-0.038,0.015
		c-0.108,0.037-0.217,0.064-0.336,0.091l-0.128,0.032c-0.07,0.018-0.139,0.042-0.208,0.067c-0.088,0.032-0.173,0.062-0.256,0.074
		c-0.098,0.017-0.2,0.017-0.301,0.017c-0.062,0-0.123,0.003-0.184,0.008c-0.165,0.01-0.324,0.002-0.479-0.003
		c-0.006,0-0.011,0-0.015,0c-0.003-0.01-0.002-0.017-0.005-0.029c-0.016-0.022-0.04-0.042-0.069-0.05
		c-0.022-0.005-0.044-0.012-0.182,0.062c-0.071-0.01-0.146-0.018-0.227-0.03c-0.068-0.007-0.135-0.012-0.203-0.017
		c-0.102-0.011-0.201-0.018-0.294-0.04c-0.082-0.018-0.158-0.052-0.239-0.094c-0.073-0.035-0.147-0.072-0.231-0.099
		c-0.074-0.022-0.152-0.037-0.229-0.053c-0.02-0.002-0.037-0.007-0.052-0.012c0.058-0.1,0.049-0.124,0.026-0.162
		c-0.019-0.033-0.054-0.057-0.092-0.065c-0.065-0.015-0.19,0.029-0.343,0.106C16.036,6.923,15.968,6.9,15.9,6.875
		c0.021-0.043,0.011-0.062-0.003-0.09c-0.016-0.023-0.048-0.049-0.078-0.054c-0.042-0.01-0.08,0.002-0.144,0.045
		c-0.052-0.022-0.104-0.05-0.154-0.073c0.125-0.182,0.114-0.201,0.088-0.243c-0.014-0.027-0.042-0.047-0.069-0.054
		c-0.054-0.01-0.087,0-0.307,0.151c-0.031-0.023-0.064-0.044-0.099-0.067c-0.048-0.03-0.097-0.062-0.147-0.094
		c0.005-0.025-0.007-0.041-0.017-0.059c-0.018-0.035-0.051-0.059-0.088-0.068c-0.023-0.002-0.052-0.002-0.08,0.004
		c-0.026-0.018-0.05-0.039-0.077-0.057c-0.026-0.02-0.052-0.039-0.08-0.06c0.054-0.046,0.08-0.087,0.045-0.149
		c-0.015-0.025-0.041-0.045-0.069-0.054c-0.022-0.003-0.049-0.009-0.191,0.061c-0.035-0.019-0.069-0.04-0.102-0.059
		c-0.083-0.045-0.164-0.091-0.237-0.138c-0.039-0.028-0.083-0.044-0.12-0.059c-0.021-0.006-0.042-0.014-0.059-0.02
		c-0.032-0.041-0.068-0.079-0.104-0.113c0.005-0.033,0.002-0.061-0.012-0.087c-0.016-0.024-0.039-0.043-0.066-0.05
		c-0.021-0.006-0.04-0.004-0.061,0.003c-0.031-0.028-0.062-0.058-0.093-0.087c0.16-0.208,0.132-0.254,0.109-0.297
		c-0.035-0.055-0.052-0.079-0.331,0.07c-0.045-0.047-0.088-0.094-0.137-0.137c-0.071-0.066-0.143-0.134-0.211-0.203
		c-0.047-0.045-0.095-0.092-0.143-0.139c0.012-0.035,0.007-0.064-0.01-0.096c-0.026-0.045-0.08-0.061-0.127-0.043
		c-0.057-0.059-0.112-0.121-0.168-0.181l-0.03-0.037c-0.084-0.093-0.156-0.192-0.222-0.291l0.005-0.005
		c0.028-0.034,0.031-0.082,0.011-0.12c-0.025-0.038-0.062-0.064-0.104-0.073c-0.01-0.001-0.022,0-0.031,0
		c-0.021-0.037-0.037-0.074-0.05-0.114c0.175-0.194,0.158-0.227,0.132-0.274c-0.016-0.026-0.039-0.043-0.064-0.05
		c-0.028-0.007-0.056-0.003-0.082,0.01l-0.08,0.047c-0.005-0.009-0.007-0.019-0.014-0.029c-0.016-0.049-0.034-0.099-0.045-0.147
		c0.078-0.111,0.059-0.144,0.04-0.182c-0.015-0.025-0.04-0.044-0.064-0.06c0.007-0.119,0.033-0.248,0.088-0.4
		c0.056-0.156,0.139-0.285,0.25-0.381c0.103-0.09,0.239-0.16,0.418-0.216c0.079-0.025,0.154-0.047,0.23-0.064
		c0.033,0.012,0.071,0.007,0.101-0.017c0.047-0.004,0.094-0.007,0.139-0.002c0.076,0.005,0.158,0.035,0.237,0.075
		c0,0.033,0.012,0.053,0.021,0.071c0.019,0.033,0.051,0.057,0.094,0.066c0.022,0.005,0.05,0.003,0.08-0.003
		c0.01,0.01,0.022,0.021,0.033,0.031c-0.099,0.142-0.132,0.253-0.086,0.329c0.017,0.035,0.052,0.059,0.093,0.066
		c0.023,0.005,0.049,0.003,0.077-0.004l-0.085,0.076c-0.123-0.042-0.253-0.038-0.391,0.023c-0.172,0.074-0.387,0.208-0.436,0.426
		c-0.043,0.201,0.051,0.432,0.241,0.59c0.186,0.152,0.383,0.186,0.571,0.208c0.054,0.006,0.111,0.011,0.168,0.014
		c0.007,0.003,0.014,0.01,0.024,0.012c0.026,0.007,0.055,0.004,0.08-0.01c0.135-0.003,0.249-0.028,0.345-0.08
		c0.13-0.074,0.23-0.188,0.324-0.307l0.09-0.052c0.047-0.028,0.064-0.083,0.045-0.131c0.099-0.153,0.161-0.321,0.208-0.482
		c0.001-0.008,0.005-0.015,0.007-0.026c0.009-0.005,0.018-0.012,0.028-0.019c0.045-0.033,0.059-0.092,0.031-0.14
		c-0.003-0.006-0.009-0.009-0.014-0.015c0.029-0.129,0.048-0.26,0.028-0.392l-0.004-0.04c-0.024-0.16-0.048-0.327-0.119-0.469
		c-0.045-0.086-0.104-0.175-0.178-0.261c0.02-0.018,0.039-0.033,0.062-0.049c0.043-0.033,0.055-0.092,0.027-0.137
		c-0.013-0.026-0.041-0.045-0.071-0.054c-0.042-0.007-0.059-0.007-0.169,0.073c-0.058-0.057-0.124-0.099-0.189-0.137
		c0.003-0.007,0.01-0.01,0.015-0.017c0.037-0.033,0.045-0.086,0.02-0.13c-0.024-0.042-0.064-0.07-0.115-0.079
		c-0.059-0.01-0.144,0.012-0.246,0.054c-0.07-0.029-0.141-0.052-0.21-0.074c-0.005-0.024-0.012-0.04-0.021-0.052
		c-0.019-0.031-0.048-0.054-0.09-0.064c-0.036-0.008-0.105,0.007-0.192,0.038c-0.111-0.024-0.224-0.043-0.334-0.052
		c-0.002-0.017-0.006-0.035-0.014-0.048c-0.014-0.025-0.04-0.043-0.067-0.052c-0.007-0.002-0.013-0.003-0.021-0.003
		c-0.022,0-0.066,0.013-0.175,0.067c-0.084-0.012-0.172-0.021-0.26-0.003C12.492,0.837,12.362,0.9,12.237,0.96
		c-0.042,0.02-0.083,0.041-0.125,0.058c-0.038,0.018-0.078,0.033-0.117,0.048c-0.137,0.054-0.276,0.111-0.394,0.205
		c-0.131,0.104-0.222,0.234-0.312,0.359L11.19,1.767c-0.022,0.03-0.045,0.06-0.066,0.09c-0.033,0.019-0.067,0.04-0.102,0.061
		c-0.05,0.032-0.066,0.096-0.036,0.148c0.001,0.001,0.003,0.001,0.003,0.003c-0.023,0.042-0.045,0.082-0.061,0.126
		c-0.055,0.139-0.076,0.288-0.095,0.432c-0.005,0.042-0.011,0.083-0.017,0.126c-0.024,0.162-0.02,0.321-0.011,0.493
		c-0.009-0.008-0.017-0.013-0.026-0.024c-0.069-0.056-0.137-0.113-0.207-0.174c-0.065-0.059-0.139-0.107-0.208-0.154
		c-0.064-0.045-0.13-0.088-0.188-0.139c-0.056-0.048-0.109-0.104-0.161-0.158C9.956,2.537,9.895,2.471,9.825,2.414
		C9.752,2.352,9.676,2.296,9.602,2.238C9.544,2.195,9.489,2.154,9.437,2.112c-0.031-0.025-0.062-0.054-0.09-0.079
		c0.111-0.14,0.104-0.16,0.075-0.209C9.4,1.788,9.366,1.764,9.322,1.755C9.267,1.745,9.196,1.758,9.094,1.81
		c-0.009-0.007-0.019-0.018-0.03-0.026C9.017,1.75,8.967,1.718,8.917,1.685C8.92,1.667,8.913,1.649,8.905,1.63
		C8.884,1.595,8.849,1.571,8.808,1.562c-0.022-0.005-0.047-0.005-0.078,0C8.704,1.545,8.678,1.529,8.652,1.51
		C8.627,1.495,8.599,1.479,8.573,1.462c0.019-0.014,0.039-0.028,0.06-0.043c0.045-0.033,0.055-0.098,0.026-0.142
		C8.627,1.228,8.563,1.212,8.517,1.241L8.352,1.335C8.308,1.311,8.265,1.288,8.224,1.262C8.19,1.243,8.157,1.215,8.127,1.191
		c0.016-0.039,0.008-0.059-0.01-0.09C8.102,1.075,8.06,1.047,8.031,1.041C8.01,1.036,7.979,1.039,7.942,1.047
		C7.903,1.02,7.861,0.992,7.814,0.965c-0.016-0.008-0.03-0.017-0.045-0.024c0.009-0.009,0.019-0.019,0.028-0.028
		C7.833,0.879,7.84,0.825,7.816,0.782c-0.014-0.022-0.042-0.045-0.07-0.05C7.72,0.725,7.689,0.716,7.514,0.806
		C7.469,0.784,7.425,0.761,7.377,0.741C7.362,0.732,7.343,0.725,7.323,0.718l0.04-0.052c0.028-0.035,0.03-0.082,0.009-0.118
		c-0.014-0.026-0.044-0.05-0.072-0.055c-0.056-0.014-0.123,0.009-0.31,0.119c-0.028-0.01-0.056-0.015-0.085-0.024
		C6.873,0.574,6.839,0.565,6.809,0.551C6.83,0.485,6.826,0.43,6.8,0.385c-0.024-0.04-0.061-0.068-0.111-0.077
		C6.611,0.291,6.505,0.325,6.359,0.402c-0.05-0.017-0.1-0.035-0.152-0.056C6.2,0.343,6.195,0.342,6.186,0.338
		C6.2,0.305,6.195,0.286,6.174,0.255C6.16,0.229,6.134,0.209,6.104,0.203c-0.04-0.008-0.061-0.007-0.161,0.056
		C5.932,0.255,5.916,0.25,5.902,0.246C5.796,0.226,5.687,0.222,5.583,0.217C5.512,0.215,5.444,0.213,5.355,0.203
		C5.191,0.184,5.019,0.165,4.849,0.158C4.795,0.156,4.738,0.156,4.685,0.155c-0.001-0.008-0.007-0.013-0.01-0.02
		C4.646,0.088,4.593,0.028,4.483,0.007C4.461,0.004,4.437,0,4.409,0C4.269,0,4.069,0.064,3.84,0.167
		C3.823,0.168,3.806,0.168,3.79,0.172c-0.112,0.014-0.22,0.05-0.322,0.083C3.403,0.276,3.339,0.297,3.275,0.312
		C3.102,0.354,2.937,0.409,2.769,0.47c-0.043,0.016-0.09,0.032-0.135,0.045c-0.12,0.041-0.245,0.082-0.363,0.139
		C2.16,0.709,2.062,0.78,1.967,0.848c-0.046,0.035-0.093,0.067-0.14,0.099C1.702,1.03,1.597,1.124,1.495,1.215L1.416,1.283
		C1.38,1.314,1.344,1.346,1.306,1.376C1.21,1.457,1.109,1.538,1.023,1.639C0.985,1.685,0.941,1.727,0.898,1.772
		c-0.083,0.08-0.167,0.165-0.232,0.269C0.572,2.192,0.483,2.352,0.411,2.516C0.36,2.625,0.338,2.738,0.317,2.849
		c-0.01,0.059-0.021,0.114-0.038,0.17c-0.007,0.029-0.01,0.059-0.016,0.089c-0.003,0-0.007,0.004-0.01,0.006
		C0.205,3.147,0.189,3.211,0.22,3.261C0.225,3.268,0.232,3.273,0.237,3.277z M1.536,2.575C1.47,2.647,1.407,2.726,1.362,2.817
		c0,0.004-0.001,0.004-0.001,0.006c-0.131,0.089-0.25,0.169-0.33,0.225C0.513,3.39,0.375,3.48,0.453,3.615
		C0.464,3.634,0.48,3.653,0.5,3.667C0.466,3.694,0.435,3.724,0.405,3.752C0.409,3.7,0.416,3.65,0.421,3.594l0.006-0.043
		C0.432,3.5,0.437,3.449,0.44,3.398c0.006-0.054,0.009-0.109,0.014-0.161C0.83,3.001,1.219,2.761,1.536,2.575z M0.985,3.901
		C0.918,3.953,0.853,4.005,0.799,4.047C0.642,4.172,0.518,4.271,0.423,4.354C0.418,4.319,0.412,4.282,0.409,4.245
		C0.6,4.128,0.804,4.005,0.985,3.901z M0.544,4.894C0.525,4.835,0.506,4.77,0.489,4.701l0.326-0.189
		C0.653,4.706,0.579,4.818,0.544,4.894z M0.623,5.144C0.617,5.128,0.612,5.111,0.608,5.093c0.001,0,0.003,0.006,0.007,0.006
		C0.659,5.107,0.702,5.093,0.77,5.052c-0.05,0.053-0.093,0.1-0.133,0.141C0.631,5.177,0.627,5.162,0.623,5.144z M0.785,5.513
		l0.18-0.104C0.912,5.47,0.869,5.523,0.832,5.57C0.814,5.552,0.801,5.533,0.785,5.513z M1.496,5.155
		C1.523,5.202,1.55,5.25,1.579,5.293C1.517,5.312,1.427,5.372,1.198,5.527c-0.035,0.023-0.075,0.051-0.12,0.08
		C1.194,5.474,1.347,5.311,1.496,5.155z M1.078,5.861C1.085,5.855,1.09,5.853,1.097,5.85C1.094,5.855,1.09,5.863,1.085,5.871
		C1.083,5.867,1.082,5.864,1.078,5.861z M1.888,6.53C1.855,6.521,1.827,6.511,1.799,6.5C1.857,6.479,1.921,6.45,1.99,6.413
		C1.949,6.459,1.914,6.497,1.888,6.53z M1.521,6.337C1.465,6.296,1.413,6.254,1.361,6.209c0.08-0.047,0.18-0.108,0.305-0.196
		C1.631,6.111,1.579,6.227,1.521,6.337z M2.63,6.738c-0.128-0.017-0.248-0.056-0.371-0.1c0.012-0.006,0.026-0.016,0.042-0.023l0,0
		c0.031,0.05,0.093,0.066,0.144,0.036l2.401-1.387c-0.299,0.251-0.86,0.661-1.904,1.339C2.84,6.669,2.785,6.707,2.786,6.761
		c-0.029-0.008-0.061-0.01-0.09-0.015L2.63,6.738z M5.058,4.748c0.005,0.05,0.005,0.099,0.005,0.146l-0.572,0.33
		C4.773,5.009,4.948,4.855,5.058,4.748z M3.58,6.682c-0.05,0.01-0.099,0.024-0.149,0.037c-0.114,0.027-0.22,0.054-0.323,0.06
		c-0.003,0-0.008,0-0.012,0c0.188-0.102,0.555-0.312,1.287-0.745C4.232,6.205,4.065,6.389,3.936,6.535
		C3.929,6.541,3.925,6.55,3.92,6.557C3.811,6.611,3.701,6.655,3.58,6.682z M4.487,6.274C4.48,6.269,4.472,6.267,4.465,6.264
		c0.061-0.071,0.117-0.132,0.166-0.188C4.588,6.153,4.544,6.222,4.487,6.274z M5.023,5.449C5.014,5.481,4.998,5.509,4.981,5.542
		C4.962,5.515,4.929,5.497,4.898,5.497C4.95,5.455,4.993,5.418,5.037,5.382C5.03,5.404,5.03,5.428,5.023,5.449z M5.009,4.433
		L4.352,4.814c0.16-0.16,0.385-0.359,0.619-0.552C4.984,4.317,4.997,4.373,5.009,4.433z M4.858,4.014
		c0.003,0.003,0.003,0.007,0.005,0.01L4.622,4.165c0.054-0.071,0.115-0.151,0.181-0.229C4.82,3.961,4.839,3.987,4.858,4.014z
		 M2.882,3.939l0.456-0.264C3.033,3.987,2.902,4.131,2.856,4.211C2.836,4.133,2.843,4.042,2.882,3.939z M3.632,4.085L3.263,4.462
		c-0.006,0.006-0.006,0.01-0.009,0.014C3.155,4.473,3.061,4.442,2.985,4.394C3.112,4.381,3.356,4.251,3.632,4.085z M4.428,3.573
		C4.465,3.591,4.5,3.608,4.53,3.632h0.002c-0.129,0.089-0.281,0.21-0.474,0.364C3.996,4.049,3.923,4.109,3.847,4.166L4.428,3.573z
		 M4.157,3.477C3.84,3.698,3.514,3.914,3.282,4.045C3.447,3.872,3.672,3.64,3.903,3.41c0.052,0.009,0.105,0.021,0.158,0.039
		C4.093,3.459,4.125,3.468,4.157,3.477z M4.042,4.286C4.09,4.248,4.14,4.207,4.196,4.165c0.112-0.096,0.267-0.221,0.402-0.32
		C4.17,4.373,4.215,4.453,4.246,4.504C4.26,4.529,4.282,4.546,4.308,4.553C4.291,4.57,4.279,4.583,4.263,4.596
		C4.256,4.57,4.251,4.541,4.241,4.515C4.209,4.439,4.131,4.352,4.042,4.286z M4.301,5.089L4.35,5.058
		C4.336,5.072,4.319,5.083,4.3,5.095C4.301,5.093,4.301,5.09,4.301,5.089z M2.736,5.966l0.076,0.008
		c0.045,0.008,0.09,0.014,0.137,0.016C2.745,6.111,2.542,6.228,2.367,6.332c0.022-0.023,0.044-0.048,0.064-0.067
		c0.128-0.13,0.222-0.224,0.29-0.298C2.725,5.966,2.731,5.966,2.736,5.966z M2.187,5.808c0.069,0.031,0.135,0.056,0.199,0.08
		C2.152,6.063,1.924,6.217,1.788,6.281c0.128-0.276,0.168-0.463,0.118-0.552C1.888,5.703,1.864,5.683,1.834,5.677
		c-0.029-0.006-0.061,0-0.084,0.018C1.572,5.82,1.368,5.959,1.224,6.044C1.33,5.888,1.521,5.661,1.701,5.47
		c0.001-0.004,0.001-0.006,0.005-0.01c0.005,0.004,0.009,0.01,0.012,0.016C1.851,5.616,2.004,5.721,2.187,5.808z M1.381,4.922
		L0.958,5.167c0.095-0.096,0.218-0.216,0.368-0.359C1.347,4.848,1.364,4.884,1.381,4.922z M1.21,4.472
		C1.153,4.509,1.085,4.558,1.007,4.616C1.066,4.547,1.13,4.473,1.196,4.4C1.202,4.423,1.205,4.447,1.21,4.472z M1.146,4.075
		L1.004,4.156c0.05-0.038,0.097-0.077,0.14-0.111C1.144,4.054,1.146,4.064,1.146,4.075z M1.229,3.356L1.207,3.457
		C1.203,3.48,1.198,3.508,1.191,3.535c-0.135,0.073-0.34,0.193-0.652,0.38c0.151-0.133,0.371-0.316,0.69-0.56V3.356z M4.225,1.146
		C4.168,1.155,4.109,1.164,4.052,1.174C3.996,1.179,3.94,1.191,3.886,1.207L4.71,0.732C4.577,0.938,4.521,1.047,4.5,1.113
		C4.405,1.118,4.314,1.129,4.225,1.146z M4.982,1.143C5.113,1.068,5.281,0.96,5.505,0.812C5.331,1.018,5.262,1.118,5.239,1.181
		C5.191,1.17,5.142,1.162,5.092,1.157C5.058,1.153,5.019,1.148,4.982,1.143z M6.108,1.366C5.992,1.332,5.876,1.314,5.763,1.297
		C5.708,1.286,5.656,1.278,5.6,1.267C5.572,1.262,5.544,1.253,5.517,1.247C5.563,1.215,5.621,1.17,5.702,1.109
		c0.146-0.107,0.451-0.334,0.68-0.475c0.04,0.012,0.078,0.024,0.12,0.038C6.432,0.769,6.318,0.907,6.134,1.108
		c-0.083,0.092-0.12,0.13-0.078,0.2c0.014,0.026,0.04,0.045,0.067,0.052c0.067,0.016,0.106-0.005,0.534-0.284
		c0.067-0.043,0.151-0.099,0.235-0.153L6.497,1.43C6.481,1.45,6.474,1.474,6.474,1.499C6.356,1.451,6.234,1.402,6.108,1.366z
		 M6.658,1.573c0.168-0.108,0.341-0.215,0.5-0.312C6.977,1.469,6.899,1.595,6.869,1.675C6.802,1.641,6.73,1.605,6.658,1.573z
		 M7.218,1.846C7.18,1.831,7.143,1.813,7.106,1.798c0.183-0.13,0.376-0.26,0.538-0.362C7.613,1.472,7.582,1.508,7.549,1.542
		C7.422,1.682,7.329,1.784,7.257,1.866C7.244,1.859,7.229,1.852,7.218,1.846z M7.582,2.025l0.086-0.05
		C7.649,1.997,7.63,2.02,7.615,2.041C7.604,2.038,7.592,2.031,7.582,2.025z M8.145,2.341C8.092,2.306,8.036,2.273,7.982,2.238
		C8.296,2.013,8.49,1.894,8.606,1.834L8.312,2.36C8.296,2.386,8.296,2.415,8.305,2.443C8.251,2.408,8.201,2.374,8.145,2.341z
		 M8.416,2.52c0.035-0.004,0.069-0.032,0.189-0.12c0.157-0.121,0.293-0.216,0.398-0.287c-0.009,0.012-0.019,0.022-0.03,0.036
		C8.757,2.405,8.633,2.554,8.566,2.646C8.518,2.603,8.469,2.559,8.416,2.52z M8.78,2.83C8.775,2.826,8.771,2.821,8.766,2.817
		l0.281-0.161C8.969,2.753,8.91,2.83,8.865,2.892C8.835,2.871,8.808,2.852,8.78,2.83z M9.596,3.526
		C9.579,3.508,9.56,3.487,9.54,3.47C9.514,3.447,9.489,3.422,9.465,3.398l0.326-0.189L9.596,3.526z M9.245,3.187
		C9.222,3.166,9.203,3.145,9.178,3.125c-0.012-0.01-0.026-0.019-0.04-0.029l0.232-0.134C9.315,3.055,9.275,3.128,9.245,3.187z
		 M9.898,3.811C9.856,3.776,9.82,3.738,9.782,3.7c0.189-0.125,0.39-0.251,0.531-0.332c-0.061,0.123-0.152,0.29-0.241,0.432
		c-0.02,0.033-0.02,0.076,0,0.107c0.007,0.013,0.019,0.025,0.031,0.034c-0.005-0.002-0.009-0.006-0.014-0.007
		C10.018,3.894,9.95,3.858,9.898,3.811z M10.557,3.348c0,0.002-0.003,0.004-0.003,0.004c0.003-0.011,0.009-0.021,0.012-0.031
		c0.007,0.007,0.018,0.015,0.023,0.02C10.578,3.345,10.567,3.341,10.557,3.348z M10.507,3.459c0,0.012,0.005,0.024,0.01,0.037
		c0.009,0.012,0.021,0.022,0.033,0.033c-0.04,0.03-0.082,0.056-0.123,0.083C10.461,3.552,10.486,3.504,10.507,3.459z M10.228,4.017
		c-0.033-0.022-0.069-0.043-0.106-0.064c0.013,0.005,0.021,0.01,0.032,0.014c0.021,0.005,0.065,0.01,0.194-0.06L10.228,4.017z
		 M10.498,4.256C10.481,4.237,10.461,4.22,10.442,4.2c0.114-0.062,0.276-0.185,0.541-0.385c0.193-0.147,0.504-0.387,0.709-0.502
		c-0.222,0.227-0.671,0.634-1.088,0.996c-0.009,0.009-0.016,0.016-0.021,0.026C10.554,4.308,10.526,4.282,10.498,4.256z
		 M11.743,3.059c-0.092,0.031-0.202,0.09-0.333,0.179l0.349-0.316C11.751,2.968,11.746,3.013,11.743,3.059z M10.883,4.596
		c-0.049-0.041-0.098-0.081-0.146-0.123l0.869-0.501c-0.207,0.205-0.446,0.434-0.642,0.621c-0.014,0.014-0.022,0.029-0.029,0.045
		C10.919,4.625,10.902,4.61,10.883,4.596z M11.235,4.933c-0.038-0.045-0.078-0.092-0.12-0.136c0.13-0.022,0.312-0.165,0.593-0.392
		c0.035-0.026,0.074-0.061,0.116-0.096l-0.43,0.531c-0.022,0.029-0.028,0.067-0.018,0.102c0.013,0.033,0.042,0.062,0.078,0.068
		c0.049,0.012,0.049,0.012,0.226-0.106c0.054-0.036,0.142-0.097,0.235-0.155c-0.116,0.127-0.263,0.277-0.41,0.428
		c-0.044-0.022-0.082-0.045-0.115-0.072C11.335,5.06,11.285,5,11.235,4.933z M11.83,5.356c-0.011-0.009-0.021-0.013-0.03-0.017
		l0.349-0.202c-0.116,0.109-0.199,0.198-0.263,0.269C11.864,5.388,11.847,5.372,11.83,5.356z M12.187,5.708
		c-0.035-0.026-0.066-0.056-0.097-0.087c0.173-0.13,0.35-0.255,0.489-0.338l-0.355,0.451C12.211,5.725,12.197,5.716,12.187,5.708z
		 M12.527,5.899c0.237-0.138,0.483-0.281,0.688-0.399c-0.146,0.159-0.33,0.352-0.508,0.527c-0.028-0.022-0.057-0.047-0.088-0.067
		C12.589,5.937,12.558,5.916,12.527,5.899z M13.008,6.267c-0.036-0.029-0.072-0.058-0.109-0.087l0.508-0.294
		c-0.183,0.271-0.24,0.383-0.188,0.475c0.031,0.052,0.095,0.07,0.146,0.039l0.109-0.062c-0.061,0.051-0.114,0.099-0.163,0.148
		c-0.046-0.034-0.09-0.067-0.134-0.099C13.122,6.348,13.064,6.304,13.008,6.267z M13.66,6.709c0.045-0.027,0.09-0.055,0.136-0.082
		c-0.035,0.04-0.066,0.074-0.092,0.108C13.69,6.726,13.675,6.719,13.66,6.709z M14.061,6.957c0.133-0.094,0.349-0.242,0.521-0.349
		c-0.104,0.123-0.242,0.275-0.386,0.433C14.149,7.016,14.106,6.986,14.061,6.957z M14.696,7.305
		c-0.035-0.022-0.071-0.037-0.106-0.055c0.143-0.089,0.312-0.205,0.52-0.35c-0.092,0.125-0.198,0.266-0.297,0.396
		c-0.017,0.022-0.02,0.047-0.017,0.074C14.765,7.347,14.732,7.325,14.696,7.305z M14.935,7.491c0.061,0.002,0.13-0.021,0.213-0.067
		c-0.041,0.045-0.083,0.092-0.125,0.139C14.994,7.54,14.964,7.515,14.935,7.491z M15.769,7.864c-0.066-0.04-0.133-0.074-0.203-0.104
		c-0.078-0.032-0.158-0.053-0.236-0.074c-0.002,0-0.003,0-0.007-0.003c0.295-0.2,0.588-0.388,0.797-0.504
		c0.019,0.005,0.036,0.01,0.054,0.017c-0.09,0.134-0.194,0.279-0.251,0.356c-0.146,0.208-0.146,0.208-0.109,0.265
		c0.014,0.024,0.042,0.047,0.069,0.052c0.038,0.01,0.078,0.02,0.431-0.195c-0.017,0.024-0.031,0.045-0.046,0.064
		c-0.092,0.126-0.152,0.205-0.191,0.265c-0.022-0.01-0.045-0.02-0.069-0.025C15.928,7.948,15.851,7.906,15.769,7.864z M16.475,8.141
		c-0.047-0.016-0.089-0.027-0.133-0.042c0.395-0.322,0.582-0.434,0.67-0.463c-0.035,0.106-0.135,0.324-0.232,0.505
		c-0.007,0.012-0.005,0.024-0.007,0.039c-0.015,0-0.033-0.002-0.05-0.002C16.635,8.17,16.551,8.163,16.475,8.141z M17.303,8.269
		c-0.093-0.012-0.185-0.029-0.273-0.047c0.226-0.141,0.459-0.282,0.657-0.398L17.303,8.269z M17.759,8.326
		c0.062-0.049,0.125-0.104,0.2-0.165c0.156-0.136,0.435-0.374,0.556-0.418c-0.047,0.113-0.251,0.361-0.497,0.61
		c-0.03-0.005-0.058-0.01-0.085-0.015l-0.144-0.01C17.778,8.329,17.77,8.326,17.759,8.326z M19.846,7.626
		C20,7.515,20.162,7.402,20.289,7.312c0.087-0.029,0.172-0.068,0.256-0.108c-0.591,0.44-1.23,0.897-1.6,1.048
		C19.207,8.079,19.509,7.867,19.846,7.626z M22.449,5.007c0.062-0.002,0.137-0.023,0.22-0.058c-0.082,0.062-0.166,0.125-0.25,0.189
		C22.432,5.095,22.44,5.05,22.449,5.007z M21.979,6.077c0.08-0.081,0.159-0.164,0.214-0.274c0.039-0.073,0.066-0.153,0.095-0.232
		c0.195-0.028,0.563-0.24,0.931-0.482l-0.062,0.238c-0.007,0.028-0.016,0.058-0.023,0.089c-0.174,0.125-0.339,0.241-0.494,0.343
		c-0.174,0.068-0.417,0.216-0.736,0.439c-0.018,0.01-0.036,0.02-0.053,0.025l0.016-0.019C21.897,6.16,21.939,6.119,21.979,6.077z
		 M24.03,4.078c0,0.037,0,0.071,0,0.106c0.002,0.036,0.002,0.075,0.002,0.109c-0.023-0.003-0.049-0.002-0.071,0.009
		c-0.056,0.031-0.212,0.111-0.419,0.227C23.798,4.314,23.946,4.175,24.03,4.078z M24.015,4.525c-0.016,0.1-0.028,0.2-0.015,0.304
		c-0.034-0.019-0.08-0.017-0.113,0.011c-0.185,0.146-0.366,0.286-0.543,0.418l-0.056-0.215C23.561,4.86,23.827,4.666,24.015,4.525z
		 M22.115,6.673c0.504-0.367,0.726-0.57,0.819-0.689l-0.008,0.012c-0.04,0.098-0.084,0.191-0.133,0.285L22.115,6.673z M22.047,6.361
		c0.164-0.082,0.353-0.191,0.543-0.312c-0.377,0.31-1.228,0.896-2.195,1.528c0.219-0.158,0.454-0.333,0.705-0.521
		C21.396,6.832,21.74,6.574,22.047,6.361z M22.995,5.837c-0.001-0.016-0.009-0.025-0.014-0.035
		c-0.002-0.004-0.007-0.008-0.009-0.012c0.018-0.014,0.036-0.025,0.056-0.039C23.018,5.781,23.005,5.808,22.995,5.837z M20.63,8.012
		c-0.098,0.047-0.187,0.092-0.284,0.121c-0.085,0.027-0.177,0.039-0.271,0.055c-0.069,0.01-0.139,0.021-0.207,0.037
		c-0.009,0-0.016,0.005-0.024,0.005l1.442-0.834c-0.357,0.3-0.474,0.455-0.5,0.544C20.732,7.962,20.683,7.988,20.63,8.012z
		 M22.021,7.174c-0.082,0.074-0.169,0.138-0.259,0.205h-0.004c-0.088-0.018-0.178,0.057-0.382,0.242
		c-0.043,0.037-0.101,0.092-0.161,0.144c-0.019,0.007-0.039,0.017-0.059,0.024c0.211-0.195,0.601-0.499,1.044-0.823
		C22.143,7.041,22.085,7.115,22.021,7.174z M23.565,5.853c-0.01-0.025-0.022-0.052-0.035-0.081c0.194-0.122,0.39-0.237,0.552-0.337
		l-0.41,0.519c-0.021,0.026-0.025,0.056-0.019,0.083c-0.021-0.041-0.042-0.083-0.06-0.124L23.565,5.853z M24.03,6.645
		c-0.031-0.037-0.059-0.074-0.087-0.114c0.055-0.014,0.136-0.057,0.315-0.17L24.03,6.645z M23.679,6.095
		c0.02,0.023,0.046,0.04,0.079,0.048c0.065,0.013,0.167-0.028,0.283-0.093l-0.218,0.303C23.771,6.269,23.724,6.183,23.679,6.095z
		 M24.467,7.208c-0.061-0.057-0.11-0.129-0.162-0.204c-0.029-0.047-0.064-0.093-0.097-0.139l0.424-0.245
		c-0.117,0.215-0.177,0.346-0.122,0.439c0.015,0.024,0.047,0.05,0.078,0.055c0.022,0.005,0.044,0.002,0.069-0.005
		c-0.042,0.069-0.077,0.123-0.103,0.173C24.525,7.258,24.495,7.233,24.467,7.208z M24.924,7.557
		c-0.024-0.013-0.048-0.024-0.071-0.042c0.071-0.04,0.157-0.087,0.267-0.156C25.042,7.431,24.975,7.496,24.924,7.557z M25.358,7.765
		c0.123-0.082,0.27-0.193,0.458-0.334c0.06-0.047,0.122-0.097,0.189-0.141c-0.129,0.155-0.297,0.354-0.451,0.526
		c-0.018,0.02-0.025,0.047-0.025,0.074c-0.015-0.013-0.028-0.022-0.044-0.035C25.443,7.824,25.403,7.794,25.358,7.765z M26.38,8.193
		c-0.051-0.01-0.1-0.022-0.146-0.037l0.388-0.223C26.514,8.03,26.435,8.116,26.38,8.193z M25.95,8.079
		c-0.063-0.017-0.12-0.034-0.176-0.054c0.094-0.022,0.205-0.09,0.311-0.169C26.041,7.93,25.997,8.009,25.95,8.079z M26.787,8.274
		c0.354-0.262,0.709-0.497,0.903-0.583c-0.074,0.074-0.186,0.16-0.269,0.229c-0.172,0.139-0.331,0.265-0.429,0.384
		C26.922,8.296,26.855,8.284,26.787,8.274z M27.345,7.599c0.021,0,0.039,0.003,0.057,0.003c-0.073,0.042-0.149,0.089-0.228,0.138
		C27.241,7.686,27.296,7.639,27.345,7.599z M29.163,7.74c-0.046,0.058-0.089,0.114-0.124,0.169l-0.548,0.316
		C28.723,8.049,28.949,7.888,29.163,7.74z M29.193,8.277c-0.029,0.007-0.057,0.01-0.085,0.018c0.004-0.03,0.009-0.06,0.018-0.09
		c0.016-0.044,0.037-0.089,0.061-0.136l1.437-0.828C29.998,7.683,29.486,8.059,29.193,8.277z M29.905,7.315
		C29.937,7.312,29.968,7.307,30,7.302c0.034-0.005,0.076-0.01,0.115-0.017l-0.535,0.312C29.676,7.502,29.788,7.412,29.905,7.315z
		 M33.309,5.343c0.007,0.004,0.008,0.008,0.017,0.011c0.035,0.009,0.089,0.002,0.153-0.013c-0.043,0.026-0.089,0.053-0.134,0.08
		l-0.284,0.165c0.013-0.013,0.023-0.022,0.036-0.034c0.046-0.044,0.093-0.09,0.138-0.136C33.259,5.392,33.285,5.368,33.309,5.343z
		 M33.614,5.083c0.274-0.141,0.545-0.275,0.812-0.407C34.083,4.865,33.803,5.009,33.614,5.083z M32.833,5.507
		c-0.084,0.076-0.165,0.148-0.232,0.23c-0.024,0.018-0.049,0.034-0.075,0.052c-0.026,0.019-0.05,0.038-0.075,0.056
		c-0.078,0.05-0.16,0.097-0.241,0.143c-0.068,0.037-0.133,0.075-0.198,0.113c-0.062,0.038-0.125,0.082-0.186,0.126
		c-0.077,0.052-0.155,0.106-0.239,0.151c-0.146,0.086-0.293,0.168-0.444,0.244c-0.043,0.022-0.091,0.039-0.143,0.055
		c-0.026-0.022-0.061-0.043-0.109-0.053c-0.002,0-0.006,0-0.006,0c0.588-0.378,1.274-0.77,1.98-1.147
		C32.854,5.488,32.842,5.497,32.833,5.507z M27.863,8.417c-0.014-0.002-0.027-0.002-0.041-0.007
		c-0.054-0.006-0.107-0.008-0.161-0.013c0.142-0.087,0.312-0.193,0.518-0.326L27.863,8.417z M28.835,8.358
		c-0.082,0.027-0.164,0.053-0.244,0.06c-0.001,0-0.007,0-0.01,0L28.9,8.235c-0.007,0.037-0.011,0.074-0.009,0.111
		C28.875,8.348,28.854,8.356,28.835,8.358z M31.141,7.673c-0.065,0.022-0.13,0.045-0.195,0.074
		c-0.158,0.066-0.307,0.124-0.456,0.176c-0.078,0.027-0.146,0.064-0.216,0.096c-0.082,0.043-0.157,0.082-0.239,0.102
		c-0.074,0.022-0.155,0.03-0.246,0.035c-0.026,0.005-0.057,0.005-0.084,0.01c1.031-0.754,2.561-1.832,3.856-2.622l0.973-0.562
		c0.562-0.303,1.013-0.482,1.26-0.479c-0.042,0.029-0.078,0.059-0.122,0.088C35.6,4.636,35.53,4.683,35.464,4.74
		c-0.007,0.006-0.015,0.012-0.021,0.016l-4.158,2.842c-0.016,0.01-0.024,0.021-0.031,0.034C31.217,7.646,31.18,7.659,31.141,7.673z
		 M36.397,3.958c-0.05,0.062-0.101,0.121-0.157,0.17c-0.068,0.061-0.138,0.119-0.206,0.179l-0.035,0.029
		C35.97,4.321,35.941,4.307,35.9,4.298c-0.05-0.008-0.11-0.01-0.176-0.005l0.774-0.448C36.462,3.884,36.43,3.922,36.397,3.958z
		 M40.404,1.348c-0.058,0.015-0.114,0.031-0.174,0.044c-0.038,0.01-0.076,0.019-0.116,0.03c0.521-0.324,0.989-0.617,1.323-0.812
		l-0.646,0.661c-0.017,0-0.031,0.005-0.049,0.007C40.63,1.297,40.516,1.314,40.404,1.348z M41.462,1.207
		c0.082-0.045,0.165-0.093,0.259-0.151c-0.031,0.043-0.052,0.085-0.07,0.127c-0.012,0.002-0.023,0.002-0.037,0.005
		C41.564,1.195,41.515,1.202,41.462,1.207z M42.595,0.558c0.069-0.054,0.124-0.097,0.168-0.131c0.091,0.014,0.182,0.031,0.272,0.05
		l-1.077,0.621C42.081,0.971,42.293,0.791,42.595,0.558z M42.58,1.224c-0.04,0-0.08,0-0.119-0.005
		c-0.06-0.007-0.116-0.016-0.175-0.026c-0.015-0.001-0.034-0.005-0.052-0.007l0.798-0.461c-0.052,0.09-0.109,0.178-0.144,0.235
		c-0.122,0.198-0.132,0.215-0.107,0.264c-0.005,0-0.015,0-0.021,0H42.58z M42.987,1.245c0.04-0.024,0.092-0.061,0.173-0.113
		c0.056-0.038,0.137-0.092,0.223-0.147c-0.093,0.12-0.163,0.234-0.19,0.333C43.13,1.288,43.069,1.262,43,1.247
		C42.996,1.247,42.992,1.247,42.987,1.245z M43.499,1.465c-0.009-0.003-0.016-0.007-0.021-0.012l0.638-0.368
		c-0.089,0.132-0.202,0.29-0.306,0.433c-0.011,0.015-0.016,0.028-0.02,0.045c-0.04-0.014-0.079-0.03-0.117-0.042
		C43.613,1.505,43.556,1.486,43.499,1.465z M43.894,0.741c0.083,0.028,0.161,0.054,0.237,0.09L43.49,1.2
		C43.583,1.07,43.731,0.902,43.894,0.741z M44.007,1.656C44,1.65,43.991,1.65,43.984,1.646c0.209-0.182,0.429-0.345,0.579-0.435
		l-0.367,0.551c-0.028-0.017-0.059-0.035-0.089-0.05L44.007,1.656z M44.529,1.647l0.242-0.362c0.047,0.035,0.093,0.071,0.136,0.105
		C44.799,1.465,44.655,1.567,44.529,1.647z M44.733,2.193c0.095-0.055,0.188-0.113,0.272-0.162
		c-0.089,0.158-0.122,0.258-0.132,0.325c-0.004-0.004-0.008-0.011-0.01-0.014C44.819,2.29,44.776,2.242,44.733,2.193z M44.979,2.543
		v0.002c0.024,0.003,0.075,0.014,0.214-0.064c-0.072,0.104-0.124,0.201-0.126,0.288c-0.012-0.031-0.025-0.059-0.035-0.087
		C45.016,2.636,44.999,2.591,44.979,2.543z M45.158,2.965c-0.012-0.023-0.021-0.045-0.033-0.07c0.009,0.007,0.021,0.012,0.033,0.016
		c0.031,0.003,0.062-0.002,0.087-0.02c0.076-0.056,0.159-0.116,0.237-0.17c-0.082,0.092-0.181,0.199-0.288,0.312
		C45.183,3.01,45.17,2.985,45.158,2.965z M45.756,3.088c-0.121,0.145-0.266,0.31-0.405,0.47c-0.012-0.069-0.021-0.137-0.035-0.207
		c0-0.004-0.002-0.005-0.002-0.007L45.756,3.088z M46.163,3.927c0.003,0.035,0.007,0.07,0.004,0.108c0,0.005,0,0.01,0,0.014
		c-0.044,0.014-0.104,0.04-0.199,0.09L46.163,3.927z M46.149,4.321c-0.006,0.064-0.012,0.13-0.023,0.19
		c-0.007,0.036-0.02,0.072-0.032,0.104L44.998,5.25c0.052-0.071,0.104-0.149,0.143-0.234c0.035-0.073,0.056-0.147,0.071-0.226
		c0.008-0.003,0.015-0.007,0.021-0.012c0.038,0.035,0.094,0.039,0.136,0.01c0.139-0.102,0.291-0.205,0.432-0.296
		C45.925,4.43,46.044,4.373,46.149,4.321z M44.256,5.647c-0.089,0.044-0.209,0.048-0.331,0.056c-0.056,0.002-0.112,0.004-0.168,0.01
		l-0.05,0.006C43.67,5.721,43.63,5.727,43.59,5.73c0.408-0.27,0.89-0.548,1.353-0.797C44.866,5.089,44.75,5.22,44.646,5.33
		C44.53,5.449,44.408,5.578,44.256,5.647z M43.641,5.94c-0.293,0.186-0.573,0.361-0.761,0.462c0.041-0.087,0.072-0.155,0.098-0.215
		c0.09-0.076,0.19-0.158,0.306-0.242C43.398,5.954,43.521,5.949,43.641,5.94z M45.371,3.77c0.033,0.007,0.066,0.001,0.094-0.022
		c0.089-0.075,0.185-0.148,0.264-0.202c-0.082,0.103-0.208,0.238-0.349,0.376c0-0.003,0.002-0.007,0.002-0.008
		C45.379,3.866,45.375,3.816,45.371,3.77z M45.267,4.464c0.005-0.034,0.017-0.071,0.028-0.104c0.079-0.051,0.195-0.124,0.379-0.247
		c0.022-0.014,0.044-0.028,0.068-0.045L45.383,4.46c-0.041,0.021-0.083,0.044-0.127,0.064C45.26,4.504,45.262,4.484,45.267,4.464z
		 M42.852,5.879l-0.36,0.208c0.059-0.113,0.124-0.229,0.155-0.286c0.003-0.003,0.004-0.003,0.005-0.007
		C42.715,5.834,42.781,5.861,42.852,5.879z M42.453,5.621c-0.044,0.028-0.091,0.057-0.138,0.086
		c0.039-0.046,0.074-0.086,0.104-0.121C42.431,5.597,42.441,5.609,42.453,5.621z M42.25,5.25c-0.042,0.026-0.086,0.054-0.126,0.079
		l0.112-0.148C42.242,5.205,42.246,5.228,42.25,5.25z M42.959,4.253c-0.025-0.064-0.087-0.104-0.161-0.104
		c-0.016,0-0.032,0.005-0.051,0.009c0.098-0.074,0.187-0.147,0.265-0.211c-0.063,0.241-0.041,0.281-0.025,0.31
		C43,4.281,43.029,4.302,43.056,4.307c0.028,0.007,0.055,0.014,0.21-0.071c-0.072,0.095-0.121,0.168-0.155,0.227
		C43.051,4.421,42.997,4.352,42.959,4.253z M43.677,4.066c-0.01,0.069-0.044,0.139-0.105,0.22C43.57,4.288,43.57,4.29,43.568,4.291
		l-0.13,0.073C43.507,4.274,43.59,4.17,43.677,4.066z M43.594,3.791c-0.139,0.084-0.278,0.168-0.379,0.229
		c0.026-0.104,0.068-0.239,0.11-0.357c0.015-0.045-0.002-0.095-0.042-0.123c-0.039-0.026-0.094-0.024-0.129,0.009
		c-0.563,0.493-1.137,0.895-1.418,1.004l1.322-1.162c0.101,0.029,0.196,0.082,0.298,0.162C43.448,3.624,43.53,3.694,43.594,3.791z
		 M41.501,4.462c0.016-0.102,0.043-0.19,0.077-0.271c0.021,0,0.037-0.004,0.053-0.014l0.61-0.352l-0.744,0.657L41.501,4.462z
		 M41.993,3.641c0.167-0.119,0.313-0.201,0.448-0.244c0.051-0.017,0.111-0.026,0.173-0.031L41.81,3.83
		C41.866,3.759,41.924,3.691,41.993,3.641z M41.493,5.453c-0.036-0.111-0.04-0.237-0.045-0.369
		c-0.002-0.043-0.004-0.086-0.006-0.132c-0.005-0.067,0.002-0.14,0.013-0.213c0.028,0.024,0.062,0.04,0.104,0.049
		c0.163,0.026,0.446-0.116,0.736-0.306c-0.006,0.011-0.015,0.022-0.019,0.033c-0.024,0.059-0.039,0.127-0.052,0.195
		c-0.15,0.068-0.371,0.213-0.66,0.438c-0.047,0.034-0.054,0.103-0.018,0.148c0.035,0.045,0.101,0.055,0.148,0.02
		c0.121-0.096,0.258-0.192,0.379-0.273l-0.423,0.555c-0.02,0.027-0.021,0.061-0.013,0.09C41.576,5.609,41.517,5.535,41.493,5.453z
		 M41.769,5.864c-0.023-0.036-0.053-0.073-0.08-0.108c0.009,0.004,0.015,0.008,0.023,0.012c0.038,0.01,0.075,0.017,0.442-0.207
		c-0.099,0.104-0.224,0.223-0.357,0.342C41.791,5.888,41.781,5.879,41.769,5.864z M42,6.146c0.088-0.053,0.195-0.117,0.323-0.195
		c-0.105,0.195-0.149,0.293-0.161,0.351c-0.026-0.024-0.053-0.05-0.078-0.073C42.052,6.203,42.028,6.172,42,6.146z M42.31,6.436
		c0.001-0.001,0.006-0.001,0.008-0.004l0.29-0.165c-0.077,0.088-0.134,0.18-0.165,0.26C42.396,6.501,42.35,6.47,42.31,6.436z
		 M45.821,5.018c-0.46,0.358-1.244,0.854-1.695,1.142c-0.545,0.347-0.76,0.482-0.832,0.564c-0.108-0.01-0.22-0.032-0.327-0.055
		L45.821,5.018z M43.887,6.736c-0.078,0.011-0.159,0.014-0.241,0.011c0.79-0.53,1.616-1.05,2.073-1.286
		c-0.019,0.036-0.035,0.068-0.052,0.104c-0.002,0.002-0.002,0.006-0.004,0.006c-0.316,0.275-0.823,0.66-1.336,1.027
		c-0.04,0.014-0.082,0.03-0.125,0.045C44.097,6.682,43.995,6.721,43.887,6.736z M46.07,3.063c0.023,0.09,0.027,0.188,0.031,0.293
		c0.001,0.062,0.005,0.127,0.013,0.191c0.001,0.014,0.004,0.026,0.005,0.04c-0.065,0.031-0.154,0.085-0.288,0.171
		c0.266-0.321,0.215-0.411,0.19-0.453c-0.022-0.034-0.057-0.059-0.099-0.067c-0.003,0-0.006-0.001-0.012-0.001
		c0.063-0.073,0.112-0.132,0.153-0.186C46.067,3.055,46.07,3.061,46.07,3.063z M45.9,2.627c0.016,0.035,0.03,0.071,0.047,0.107
		l-0.384,0.221c0.188-0.21,0.264-0.331,0.292-0.407C45.87,2.573,45.887,2.597,45.9,2.627z M45.719,2.331
		c0.008,0.008,0.013,0.019,0.02,0.026c-0.042,0-0.12,0.022-0.292,0.131c0.086-0.125,0.156-0.229,0.164-0.319
		c0.005,0.005,0.007,0.011,0.012,0.016C45.653,2.235,45.684,2.282,45.719,2.331z M45.513,2.027
		c-0.029-0.005-0.059,0.002-0.081,0.021c-0.107,0.088-0.224,0.173-0.312,0.227c0.054-0.111,0.149-0.272,0.256-0.429
		C45.423,1.904,45.469,1.962,45.513,2.027z M45.219,1.669c-0.082,0.041-0.222,0.116-0.484,0.274c0.116-0.114,0.25-0.24,0.385-0.369
		C45.153,1.605,45.188,1.639,45.219,1.669z M44.433,1.042c-0.017,0.012-0.037,0.022-0.058,0.037
		c0.015-0.023,0.023-0.038,0.032-0.056C44.417,1.032,44.426,1.036,44.433,1.042z M43.21,0.841c0.079-0.132,0.13-0.22,0.158-0.279
		c0.063,0.019,0.127,0.04,0.188,0.062C43.468,0.676,43.361,0.748,43.21,0.841z M42.349,0.411c-0.387,0.248-0.768,0.483-1.052,0.645
		l0.642-0.653c0.08,0.002,0.162,0.005,0.246,0.009C42.238,0.414,42.293,0.413,42.349,0.411z M38.875,1.952
		c-0.733,0.465-1.603,1.013-2.431,1.524c-0.668,0.305-1.543,0.717-2.465,1.18c0.012-0.013,0.023-0.028,0.035-0.041
		c0.039-0.049,0.077-0.095,0.116-0.143c0.046-0.045,0.091-0.088,0.139-0.129c0.006-0.006,0.012-0.011,0.018-0.018l1.185-0.683
		L35.46,3.709l0.22-0.189c0.062-0.054,0.127-0.101,0.193-0.145c0.069-0.049,0.144-0.099,0.213-0.162
		c0.013-0.01,0.026-0.026,0.038-0.038c0.035,0.019,0.078,0.021,0.112-0.002c1.12-0.758,2.305-1.517,3.224-2.065
		c0.477-0.225,0.932-0.434,1.337-0.617c0.125-0.024,0.246-0.05,0.372-0.062c0.061-0.008,0.121-0.012,0.182-0.015
		C40.916,0.669,40.171,1.132,38.875,1.952z M34.597,2.429c-0.002,0.003,0,0.009-0.003,0.012c-0.034-0.065-0.079-0.128-0.129-0.186
		l0.51-0.294C34.881,2.093,34.747,2.264,34.597,2.429z M34.179,1.987c0.064-0.002,0.14-0.028,0.223-0.071l-0.12,0.16
		C34.25,2.046,34.216,2.017,34.179,1.987z M34.919,1.587c0.028,0.036,0.056,0.076,0.082,0.114l-0.299,0.171L34.919,1.587z
		 M34.319,1.722c0.118-0.167,0.215-0.303,0.261-0.416c0.06,0.033,0.113,0.068,0.159,0.104C34.583,1.543,34.428,1.658,34.319,1.722z
		 M34.763,3.114c0.046-0.016,0.098-0.039,0.155-0.068l-0.153,0.165C34.765,3.177,34.765,3.147,34.763,3.114z M37.452,2.11
		c0.007-0.004,0.016-0.007,0.021-0.011c-0.186,0.12-0.358,0.232-0.521,0.34c0.03-0.025,0.056-0.047,0.088-0.07
		c0.05-0.038,0.101-0.08,0.152-0.12c0.013-0.01,0.026-0.017,0.042-0.026C37.305,2.185,37.378,2.148,37.452,2.11z M36.113,2.889
		c-0.056,0.056-0.108,0.112-0.166,0.163c-0.064,0.057-0.129,0.102-0.196,0.149c-0.002,0-0.002,0-0.002,0
		c0.003-0.05,0.009-0.104,0.011-0.156c0.15-0.09,0.306-0.179,0.465-0.267C36.184,2.812,36.146,2.849,36.113,2.889z M35.53,3.303
		c-0.001,0.021-0.005,0.033-0.01,0.052c-0.006,0.02-0.011,0.038-0.015,0.067l-0.003,0.015c-0.031-0.018-0.07-0.02-0.103,0
		l-0.141,0.081c0.12-0.104,0.207-0.19,0.272-0.261L35.53,3.303z M38.952,1.118c0.097-0.052,0.192-0.107,0.292-0.154
		c0.055-0.026,0.109-0.049,0.167-0.073c-0.032,0.019-0.063,0.034-0.093,0.054c-0.126,0.059-0.256,0.123-0.39,0.187
		C38.935,1.127,38.943,1.124,38.952,1.118z M35.535,2.779c0.005,0.028,0.005,0.059,0.008,0.087
		c-0.004,0.003-0.011,0.003-0.014,0.007c-0.124,0.102-0.258,0.208-0.387,0.3c-0.042,0.028-0.082,0.052-0.125,0.08l0.508-0.541
		C35.527,2.734,35.534,2.755,35.535,2.779z M35.398,2.273c0.021,0.054,0.038,0.109,0.058,0.168c-0.209,0.15-0.429,0.3-0.588,0.392
		c0.093-0.146,0.218-0.343,0.336-0.527c0.03-0.045,0.021-0.104-0.021-0.141c-0.021-0.018-0.049-0.026-0.074-0.024
		c0.043-0.061,0.074-0.109,0.103-0.156C35.286,2.079,35.355,2.169,35.398,2.273z M33.372,0.987l0.029-0.002
		c0.073,0,0.146,0.017,0.222,0.035l-1.262,0.73l0.629-0.614c0.015-0.016,0.021-0.031,0.028-0.048
		c0.023-0.009,0.048-0.014,0.074-0.024C33.19,1.025,33.282,0.992,33.372,0.987z M31.73,2.566c-0.015-0.069-0.023-0.137-0.02-0.199
		c0.005-0.003,0.012-0.003,0.017-0.007l0.974-0.562l-0.297,0.237C32.125,2.245,31.885,2.44,31.73,2.566z M32.046,1.673
		c0.009-0.009,0.02-0.016,0.024-0.023c0.021,0,0.039-0.005,0.058-0.014l0.103-0.061l-0.423,0.413
		c0.012-0.033,0.023-0.066,0.038-0.095C31.887,1.81,31.964,1.745,32.046,1.673z M31.874,3.076c0.002-0.002,0.005-0.002,0.007-0.003
		C31.938,3.036,32,2.996,32.061,2.959c-0.024,0.023-0.047,0.049-0.064,0.069c-0.038,0.04-0.069,0.077-0.103,0.113
		C31.887,3.121,31.88,3.099,31.874,3.076z M32.298,3.566c-0.067-0.04-0.137-0.083-0.197-0.129l0.488-0.281L32.298,3.566z
		 M32.525,3.685l0.54-0.31c-0.142,0.156-0.22,0.275-0.238,0.369C32.73,3.75,32.632,3.731,32.525,3.685z M33.483,3.25
		c-0.008,0.057-0.033,0.116-0.076,0.173l-0.208,0.118C33.291,3.44,33.401,3.329,33.483,3.25z M33.199,2.845
		c0.057,0.024,0.11,0.066,0.155,0.114l-0.615,0.357l0.307-0.435c0.011-0.016,0.016-0.033,0.018-0.045
		C33.111,2.828,33.161,2.828,33.199,2.845z M33.446,1.801c-0.041,0.007-0.087,0.012-0.129,0.016
		c-0.249,0.021-0.486,0.138-0.647,0.324c-0.09,0.103-0.143,0.222-0.164,0.378c-0.012,0.078,0.082,0.267,0.133,0.362L32.173,3.15
		c0.244-0.269,0.366-0.417,0.298-0.541c-0.016-0.025-0.044-0.044-0.071-0.053c-0.01,0-0.018-0.003-0.027-0.003
		c-0.048,0-0.149,0.043-0.559,0.307c-0.001-0.009-0.006-0.02-0.009-0.031l-0.011-0.038l0.722-0.574
		c0.674-0.51,1.41-0.999,1.753-1.054c0.021,0.007,0.043,0.012,0.064,0.021c0.02,0.007,0.037,0.017,0.058,0.024
		c-0.044,0.109-0.197,0.321-0.261,0.407c-0.1,0.135-0.138,0.193-0.128,0.247c-0.037-0.023-0.079-0.042-0.123-0.054
		C33.755,1.769,33.591,1.783,33.446,1.801z M34.668,2.619c0.01,0.001,0.018,0.008,0.029,0.01c0.014,0.002,0.03,0.002,0.047-0.001
		c-0.021,0.029-0.033,0.052-0.049,0.076C34.687,2.675,34.678,2.646,34.668,2.619z M34.311,3.987C34.304,4,34.293,4.009,34.287,4.019
		c-0.087,0.067-0.173,0.13-0.26,0.196C34.114,4.14,34.208,4.066,34.311,3.987L34.311,3.987z M33.401,4.952
		c0.058-0.175,0.226-0.38,0.476-0.607c-0.013,0.03-0.013,0.067,0.005,0.096c-0.009,0.014-0.022,0.027-0.032,0.039
		c-0.063,0.08-0.124,0.154-0.193,0.221c-0.056,0.051-0.108,0.107-0.163,0.164c-0.029,0.028-0.057,0.057-0.086,0.085
		c-0.002,0.002-0.006,0.002-0.006,0.004C33.401,4.952,33.401,4.952,33.401,4.952z M28.721,7.79l0.142-0.155
		c0.034-0.008,0.068-0.013,0.103-0.021C28.883,7.673,28.8,7.733,28.721,7.79z M28.309,7.644c0.044,0,0.083,0,0.125,0.002
		c-0.261,0.176-0.787,0.521-1.119,0.707c-0.007-0.002-0.01-0.002-0.017-0.002c-0.017-0.003-0.033-0.005-0.047-0.008
		c0.095-0.092,0.219-0.19,0.304-0.26c0.238-0.19,0.412-0.333,0.429-0.46c0.078,0.011,0.162,0.021,0.244,0.021H28.309z M26.782,7.456
		c0.05,0.015,0.105,0.03,0.155,0.047L26.33,7.854c0.184-0.339,0.146-0.403,0.124-0.44c-0.004-0.002-0.009-0.007-0.01-0.012
		c0.048,0.01,0.095,0.015,0.143,0.021C26.653,7.431,26.717,7.441,26.782,7.456z M26.286,7.359c0.01,0.006,0.024,0.008,0.036,0.011
		c-0.012,0.007-0.027,0.012-0.036,0.024c-0.111,0.108-0.231,0.215-0.336,0.294c0.126-0.144,0.219-0.257,0.289-0.349
		C26.254,7.347,26.269,7.354,26.286,7.359z M25.858,7.132c-0.054,0.039-0.106,0.079-0.172,0.128
		c-0.159,0.121-0.391,0.297-0.549,0.391c-0.001-0.002-0.005-0.002-0.009-0.005c0.077-0.079,0.187-0.173,0.265-0.239
		c0.148-0.129,0.275-0.24,0.35-0.339c0.035,0.017,0.064,0.037,0.099,0.054C25.847,7.122,25.852,7.129,25.858,7.132z M25.242,6.772
		C25.3,6.8,25.36,6.826,25.412,6.863l0.048,0.032c-0.246,0.155-0.495,0.313-0.672,0.412C24.87,7.174,24.975,7,25.076,6.841
		c0.021-0.033,0.021-0.074,0.001-0.108c-0.014-0.026-0.05-0.052-0.079-0.059c-0.056-0.011-0.109,0.017-0.193,0.075
		c0.021-0.035,0.04-0.068,0.055-0.099c0.022-0.038,0.04-0.069,0.056-0.099c0.019,0.019,0.036,0.038,0.053,0.056
		C25.05,6.681,25.15,6.726,25.242,6.772z M24.709,6.332l-0.286,0.162l0.209-0.26C24.658,6.267,24.683,6.298,24.709,6.332z
		 M24.459,5.919c0.008,0.014,0.017,0.029,0.021,0.043c-0.046,0.029-0.096,0.062-0.161,0.104c-0.019,0.01-0.037,0.024-0.056,0.036
		l0.171-0.242C24.444,5.881,24.453,5.9,24.459,5.919z M24.314,5.6c-0.073,0.058-0.147,0.111-0.22,0.159l0.188-0.23
		C24.291,5.553,24.301,5.578,24.314,5.6z M23.598,5.479c0.122-0.147,0.28-0.326,0.431-0.483c0.005-0.008,0.011-0.014,0.014-0.021
		c0.022,0.059,0.049,0.115,0.077,0.168c0.004,0.008,0.005,0.013,0.009,0.02C24,5.232,23.832,5.335,23.598,5.479z M25.045,2.414
		c-0.177,0.076-0.331,0.196-0.481,0.38c-0.083,0.101-0.169,0.205-0.239,0.319c-0.069,0.024-0.227,0.121-0.743,0.433
		c-0.095,0.058-0.203,0.123-0.319,0.191l0.099-0.361c0.014-0.046,0.024-0.091,0.033-0.133c0.08-0.005,0.396-0.126,2.422-1.361
		c-0.194,0.208-0.311,0.337-0.379,0.42C25.303,2.325,25.169,2.36,25.045,2.414z M23.125,3.251c0.009,0.042,0.02,0.082,0.031,0.125
		v0.004c-0.018-0.019-0.037-0.033-0.059-0.039c-0.022-0.003-0.049-0.001-0.073,0.009C23.06,3.317,23.093,3.284,23.125,3.251
		L23.125,3.251z M25.883,2.233c0.329-0.246,0.655-0.467,0.873-0.579c-0.209,0.213-0.393,0.442-0.428,0.612
		c-0.09-0.016-0.19-0.03-0.305-0.037C25.976,2.227,25.932,2.229,25.883,2.233z M26.942,2.649c-0.083-0.095-0.182-0.211-0.318-0.286
		c0.003-0.003,0.008-0.007,0.012-0.011c0.08-0.059,0.257-0.186,0.379-0.256l-0.055,0.38c-0.005,0.038,0.012,0.08,0.047,0.102
		c0.015,0.011,0.033,0.016,0.051,0.018c-0.033,0.035-0.06,0.066-0.086,0.097C26.961,2.679,26.954,2.665,26.942,2.649z M27.875,2.675
		c0.011,0.03,0.021,0.059,0.03,0.086c0.009,0.045,0.018,0.094,0.022,0.146c-0.031-0.014-0.064-0.019-0.094,0L27.239,3.25
		C27.402,3.084,27.635,2.873,27.875,2.675z M27.806,3.417l0.131-0.274c-0.001,0.03-0.001,0.062-0.002,0.092
		c-0.003,0.049-0.021,0.086-0.042,0.121C27.867,3.375,27.84,3.393,27.806,3.417z M27.291,3.511c-0.011-0.005-0.02-0.015-0.032-0.024
		l0.386-0.224l-0.136,0.284C27.421,3.56,27.346,3.549,27.291,3.511z M27.674,2.356c0.024,0.036,0.049,0.073,0.071,0.109
		c-0.043,0.031-0.094,0.069-0.159,0.116c-0.129,0.09-0.343,0.244-0.504,0.341c-0.001-0.009-0.003-0.02-0.007-0.028
		c0.131-0.152,0.351-0.367,0.581-0.572C27.662,2.334,27.668,2.344,27.674,2.356z M27.416,1.962c0.043,0.039,0.078,0.085,0.111,0.139
		l-0.326,0.188l0.043-0.319c0.006-0.023,0-0.047-0.011-0.066c-0.017-0.028-0.06-0.059-0.09-0.064
		c-0.081-0.017-0.189,0.03-0.453,0.213c0.078-0.097,0.183-0.213,0.299-0.328c0.004,0.002,0.009,0.004,0.013,0.007
		c0.043,0.023,0.086,0.042,0.132,0.066C27.241,1.848,27.34,1.897,27.416,1.962z M26.303,1.675c0.052-0.058,0.1-0.106,0.149-0.157
		c0.028,0.002,0.057,0.007,0.084,0.015C26.462,1.574,26.384,1.625,26.303,1.675z M23.491,2.989c0.042-0.111,0.173-0.251,0.36-0.407
		c0.242-0.099,0.673-0.368,1.473-0.907c0.118-0.08,0.239-0.162,0.318-0.212c0.135-0.005,0.267,0.008,0.406,0.026
		C25.109,2.063,23.87,2.806,23.491,2.989z M24.313,1.971l0.034-0.024c0.112-0.088,0.237-0.167,0.376-0.237
		c0.058-0.028,0.112-0.064,0.167-0.101c0.085-0.056,0.164-0.109,0.251-0.13c0.007-0.003,0.016-0.003,0.023-0.003
		c-0.282,0.156-0.64,0.364-0.969,0.588C24.232,2.034,24.273,2.003,24.313,1.971z M22.959,2.841
		c-0.107,0.064-0.253,0.167-0.452,0.316c-0.01,0.007-0.016,0.013-0.024,0.018c0.021-0.019,0.039-0.039,0.059-0.054
		c0.162-0.153,0.294-0.272,0.346-0.376c0.002,0.003,0.005,0.005,0.009,0.01C22.915,2.785,22.938,2.812,22.959,2.841z M22.745,2.539
		L22.745,2.539l-0.114,0.065l0.084-0.128C22.725,2.497,22.735,2.518,22.745,2.539z M22.534,2.183
		c-0.133,0.087-0.26,0.168-0.362,0.225l0.143-0.388c0.005-0.016,0.008-0.033,0.005-0.049C22.389,2.034,22.46,2.102,22.534,2.183z
		 M21.303,2.31c-0.097-0.026-0.194-0.045-0.275-0.055c0.202-0.151,0.551-0.408,0.778-0.534L21.303,2.31z M20.489,2.214
		c-0.057,0.003-0.13,0.01-0.2,0.021l0.652-0.38l-0.33,0.359C20.569,2.214,20.531,2.21,20.489,2.214z M22.036,1.777
		c0.054,0.028,0.104,0.056,0.149,0.086c-0.077-0.001-0.19,0.045-0.326,0.124L22.036,1.777z M21.282,1.805l0.234-0.253
		c0.032,0.012,0.069,0.021,0.101,0.033C21.52,1.642,21.41,1.713,21.282,1.805z M21.199,1.462l-0.488,0.283
		c0.122-0.118,0.195-0.231,0.196-0.336C21.005,1.413,21.102,1.437,21.199,1.462z M18.95,2.204c0.043-0.093,0.085-0.182,0.15-0.241
		c0.083-0.073,0.19-0.126,0.306-0.184c0.035-0.019,0.07-0.036,0.107-0.056c0.039-0.019,0.077-0.041,0.116-0.065
		c0.103-0.056,0.207-0.116,0.312-0.149c0.087-0.026,0.185-0.027,0.288-0.033c0.065-0.002,0.13-0.002,0.194-0.011
		c0.008,0,0.014-0.003,0.021-0.003c-0.69,0.528-1.421,1.007-1.682,1.077c0.031-0.058,0.065-0.115,0.098-0.168
		C18.894,2.318,18.923,2.261,18.95,2.204z M18.667,2.778c0.003-0.01,0.006-0.021,0.008-0.03c0.034,0,0.071-0.003,0.112-0.012
		c-0.068,0.054-0.111,0.101-0.14,0.146C18.653,2.845,18.658,2.811,18.667,2.778z M18.637,3.233
		c-0.002-0.059-0.002-0.112-0.002-0.163c0.03,0.048,0.092,0.064,0.143,0.037l0.743-0.428c-0.067,0.088-0.114,0.177-0.143,0.267
		c-0.014-0.021-0.034-0.036-0.061-0.042c-0.005-0.001-0.014-0.003-0.022-0.003c-0.053,0-0.176,0.045-0.656,0.354
		C18.639,3.248,18.639,3.242,18.637,3.233z M19.271,3.4c0.033-0.061,0.058-0.113,0.08-0.156c-0.001,0.043-0.009,0.086-0.021,0.122
		C19.312,3.377,19.29,3.39,19.271,3.4z M18.714,3.461c0.153-0.099,0.308-0.194,0.421-0.26c-0.042,0.086-0.096,0.184-0.129,0.239
		c-0.028,0.05-0.051,0.09-0.065,0.123c-0.042-0.007-0.08-0.016-0.12-0.031C18.787,3.52,18.747,3.499,18.714,3.461z M21.879,2.719
		c-0.087-0.109-0.177-0.216-0.293-0.295c0.174-0.125,0.346-0.237,0.462-0.3L21.885,2.57c-0.011,0.031-0.006,0.064,0.009,0.092
		c0.015,0.026,0.043,0.046,0.072,0.054c0.035,0.007,0.087,0.021,0.483-0.222L22.21,2.861c-0.028,0.042-0.023,0.094,0.012,0.13
		c0.032,0.033,0.076,0.043,0.118,0.026c-0.06,0.054-0.111,0.104-0.158,0.154c-0.073-0.137-0.152-0.268-0.247-0.383L21.879,2.719z
		 M22.461,3.943c-0.007-0.036-0.016-0.075-0.025-0.111c-0.019-0.09-0.049-0.189-0.091-0.296c0.073-0.048,0.165-0.116,0.289-0.206
		c0.108-0.08,0.262-0.196,0.38-0.271c-0.057,0.062-0.131,0.131-0.183,0.184c-0.221,0.21-0.393,0.375-0.305,0.529
		c0.017,0.028,0.06,0.056,0.087,0.062c0.09,0.02,0.192-0.057,0.361-0.191c0.039-0.028,0.086-0.067,0.114-0.086
		c0.018,0,0.031-0.005,0.047-0.014c0.026-0.014,0.041-0.037,0.049-0.062l0.07,0.262c-0.256,0.152-0.534,0.319-0.745,0.44
		C22.497,4.101,22.479,4.021,22.461,3.943z M23.693,3.726c0.172-0.104,0.346-0.208,0.479-0.288c-0.01,0.028-0.023,0.058-0.032,0.083
		c-0.304,0.336-1.055,0.814-1.633,1.135c0.009-0.081,0.014-0.159,0.015-0.235C22.733,4.302,23.087,4.092,23.693,3.726z M21.85,5.902
		c-0.008,0.011-0.014,0.02-0.025,0.027c-0.044,0.047-0.088,0.094-0.126,0.143L21.68,6.095c-0.027,0.034-0.053,0.067-0.08,0.098
		C21.642,6.112,21.729,6.011,21.85,5.902z M18.755,7.644c0.057-0.005,0.113-0.008,0.173-0.008c0.107,0,0.218-0.002,0.329-0.022
		c0.103-0.015,0.201-0.047,0.296-0.081c0.035-0.01,0.07-0.022,0.107-0.035c-0.297,0.213-0.741,0.524-1.095,0.737
		c-0.009,0.002-0.017,0.005-0.025,0.01c-0.012,0.007-0.017,0.013-0.021,0.02c-0.092,0.052-0.177,0.102-0.246,0.134
		c0.351-0.363,0.5-0.616,0.45-0.754C18.734,7.644,18.744,7.644,18.755,7.644z M18.264,7.644c-0.121,0.081-0.267,0.202-0.442,0.354
		l0.308-0.361c0.042,0.003,0.082,0.008,0.122,0.008C18.255,7.644,18.261,7.644,18.264,7.644z M17.544,7.575
		c0.04,0.005,0.083,0.01,0.125,0.012c-0.135,0.079-0.309,0.184-0.534,0.319c0.103-0.228,0.104-0.321,0.094-0.371
		C17.334,7.56,17.442,7.567,17.544,7.575z M16.932,7.423c0.009,0.003,0.019,0.008,0.03,0.01c-0.094,0.03-0.207,0.09-0.342,0.181
		c0.101-0.139,0.144-0.212,0.156-0.262C16.826,7.372,16.878,7.396,16.932,7.423z M16.525,7.291
		c-0.094,0.059-0.189,0.121-0.278,0.173c0.058-0.082,0.103-0.146,0.141-0.203C16.435,7.273,16.479,7.283,16.525,7.291z
		 M15.855,7.084c-0.076,0.045-0.158,0.095-0.237,0.146c0.065-0.074,0.116-0.131,0.156-0.181C15.803,7.063,15.83,7.075,15.855,7.084z
		 M15.481,6.919c-0.009,0.01-0.02,0.016-0.028,0.022c-0.064,0.049-0.156,0.123-0.25,0.19c0.077-0.1,0.137-0.184,0.191-0.255
		C15.424,6.895,15.453,6.906,15.481,6.919z M15.015,6.667c0.012,0.006,0.021,0.014,0.031,0.019
		c-0.001,0.003-0.005,0.003-0.005,0.003c-0.152,0.106-0.396,0.276-0.601,0.406c0.225-0.25,0.362-0.406,0.443-0.514
		C14.924,6.611,14.971,6.637,15.015,6.667z M13.952,6.772c0.104-0.11,0.265-0.263,0.523-0.476c0.033,0.023,0.066,0.047,0.097,0.071
		C14.432,6.447,14.236,6.574,13.952,6.772z M13.662,6.459c0.022-0.022,0.043-0.04,0.064-0.058c0.16-0.135,0.288-0.245,0.355-0.344
		c0.043,0.025,0.084,0.053,0.126,0.076C14.078,6.209,13.903,6.314,13.662,6.459z M13.761,5.888l0.022,0.021c0,0,0.004,0,0.006,0.004
		l-0.232,0.134c0.024-0.042,0.052-0.08,0.071-0.109c0.029-0.044,0.052-0.078,0.074-0.111C13.721,5.845,13.742,5.867,13.761,5.888z
		 M13.473,5.6l-0.125,0.073c0.035-0.037,0.062-0.071,0.09-0.104C13.451,5.582,13.461,5.591,13.473,5.6z M13.074,5.2
		c0.03,0.028,0.058,0.058,0.085,0.087c-0.142,0.079-0.33,0.189-0.574,0.331l0.364-0.462c0.012-0.017,0.021-0.034,0.023-0.055
		C13.005,5.134,13.04,5.169,13.074,5.2z M12.829,4.964c-0.075-0.002-0.176,0.036-0.295,0.1c0.083-0.078,0.147-0.142,0.199-0.191
		C12.764,4.902,12.795,4.933,12.829,4.964z M12.534,4.669L12,4.976c0.261-0.281,0.349-0.41,0.373-0.483L12.4,4.521
		C12.443,4.572,12.488,4.621,12.534,4.669z M12.251,4.338c-0.051,0.004-0.124,0.03-0.267,0.117l0.184-0.227
		C12.192,4.265,12.221,4.302,12.251,4.338z M11.984,3.931c-0.026,0.016-0.052,0.033-0.083,0.056c0.028-0.03,0.049-0.051,0.073-0.079
		C11.977,3.915,11.982,3.922,11.984,3.931z M11.832,3.518c0.005,0.021,0.014,0.042,0.022,0.066l-0.329,0.19
		c0.126-0.12,0.222-0.211,0.294-0.288C11.825,3.498,11.826,3.506,11.832,3.518z M12.653,1.855c-0.208,0.064-0.371,0.149-0.496,0.258
		c-0.139,0.122-0.244,0.281-0.312,0.472c-0.012,0.035-0.021,0.069-0.033,0.103c-0.008-0.007-0.019-0.012-0.031-0.015
		c-0.01-0.002-0.021-0.004-0.029-0.004c-0.042,0-0.085,0.033-0.284,0.181c-0.101,0.072-0.282,0.208-0.454,0.322
		c-0.006-0.135-0.006-0.261,0.013-0.386c0.008-0.043,0.013-0.086,0.018-0.13c0.017-0.137,0.035-0.265,0.08-0.379
		c0.039-0.092,0.09-0.175,0.15-0.262c0.282-0.168,0.612-0.368,0.915-0.548l-1.033,0.871c-0.043,0.036-0.05,0.101-0.016,0.146
		c0.035,0.045,0.097,0.058,0.146,0.022c0.872-0.595,1.848-1.208,2.237-1.379c0.005,0.001,0.014,0.001,0.019,0.003
		c-0.113,0.159-0.355,0.423-0.593,0.65C12.849,1.796,12.752,1.824,12.653,1.855z M13.305,1.777c0.22-0.167,0.444-0.323,0.619-0.429
		c-0.225,0.231-0.35,0.387-0.423,0.5C13.438,1.817,13.373,1.792,13.305,1.777z M13.21,2.97c-0.032,0.033-0.061,0.062-0.085,0.09
		c-0.024,0.028-0.031,0.065-0.021,0.099c-0.023,0.022-0.045,0.042-0.061,0.054c-0.005,0.007-0.01,0.014-0.016,0.021
		c0-0.021-0.002-0.04,0.004-0.057C13.046,3.105,13.111,3.034,13.21,2.97z M13.197,3.556c-0.059-0.05-0.104-0.107-0.133-0.168
		c0.04,0.019,0.086,0.015,0.12-0.014l0.115-0.101c0.109-0.095,0.216-0.182,0.317-0.264c0.005-0.001,0.012,0,0.018-0.003
		c0.017-0.01,0.027-0.024,0.036-0.041c0.009-0.004,0.018-0.011,0.026-0.018c0,0.001,0.002,0.001,0.002,0.003l0.08,0.064l0.067-0.077
		c0.011-0.012,0.049-0.083,0.085-0.168c0.269-0.192,0.492-0.326,0.631-0.376c-0.037,0.031-0.075,0.064-0.113,0.099
		c-1.13,1.007-1.115,1.032-1.058,1.133c0.016,0.026,0.042,0.045,0.073,0.05c0.03,0.005,0.061-0.001,0.085-0.019
		c0.168-0.13,0.352-0.264,0.525-0.383c-0.163,0.16-0.286,0.315-0.324,0.451c-0.031-0.002-0.062-0.005-0.092-0.011
		C13.494,3.698,13.338,3.672,13.197,3.556z M14.73,2.013c0.014,0.055,0.024,0.109,0.035,0.17c-0.014-0.007-0.028-0.014-0.043-0.019
		c-0.054-0.007-0.118,0-0.188,0.021L14.73,2.013z M14.432,2.792c0.06-0.05,0.113-0.099,0.158-0.139
		c0.087-0.08,0.152-0.137,0.201-0.182c-0.004,0.058-0.016,0.116-0.028,0.175C14.673,2.67,14.561,2.722,14.432,2.792z M14.503,3.3
		l-0.016,0.022c-0.019,0.025-0.038,0.049-0.056,0.073l-0.388,0.224c0.116-0.139,0.328-0.332,0.578-0.527
		C14.588,3.166,14.552,3.235,14.503,3.3z M14.636,1.809c-0.233,0.177-0.494,0.355-0.686,0.47c-0.009-0.023-0.016-0.043-0.028-0.064
		c0.141-0.153,0.357-0.351,0.606-0.552C14.571,1.711,14.607,1.76,14.636,1.809z M14.364,1.493c-0.166,0.118-0.475,0.335-0.661,0.434
		c0.097-0.134,0.29-0.341,0.491-0.544C14.257,1.417,14.314,1.451,14.364,1.493z M13.738,1.212c0.005-0.009,0.011-0.016,0.014-0.025
		c0.009,0,0.014,0.004,0.021,0.004C13.763,1.2,13.75,1.206,13.738,1.212z M12.618,1.38l0.399-0.336
		c0.04,0.007,0.082,0.012,0.124,0.016c0.01,0.003,0.019,0.003,0.031,0.005C13.007,1.15,12.82,1.259,12.618,1.38z M11.73,1.439
		c0.095-0.074,0.217-0.123,0.344-0.173c0.035-0.018,0.071-0.032,0.106-0.047c-0.158,0.093-0.344,0.205-0.566,0.338
		C11.651,1.514,11.689,1.474,11.73,1.439z M10.317,3.125c-0.076,0.037-0.183,0.097-0.347,0.199l0.191-0.312
		c0.028,0.021,0.055,0.04,0.083,0.057C10.27,3.086,10.293,3.105,10.317,3.125z M9.86,2.745c0.038,0.04,0.08,0.077,0.116,0.113
		L9.529,3.116C9.6,2.992,9.683,2.849,9.765,2.719c0.008-0.018,0.012-0.038,0.012-0.057C9.807,2.691,9.834,2.717,9.86,2.745z
		 M9.669,2.563c-0.018,0-0.035,0-0.048,0.008l-0.436,0.25C9.241,2.75,9.298,2.681,9.342,2.627c0.071-0.088,0.119-0.151,0.157-0.2
		C9.555,2.473,9.614,2.516,9.669,2.563z M9.29,2.268L9.021,2.426c0.041-0.05,0.082-0.099,0.116-0.141
		c0.028-0.035,0.052-0.061,0.075-0.09C9.238,2.221,9.264,2.245,9.29,2.268z M8.736,2.039L8.823,1.88
		c0.026,0.017,0.05,0.031,0.073,0.048C8.847,1.961,8.795,1.996,8.736,2.039z M8.485,1.659c-0.132,0.07-0.312,0.182-0.572,0.366
		C8.036,1.9,8.203,1.751,8.39,1.604C8.42,1.622,8.454,1.641,8.485,1.659z M8.11,1.445C8.119,1.45,8.127,1.453,8.136,1.458
		L7.664,1.732c0.014-0.017,0.031-0.031,0.043-0.047C7.84,1.538,7.932,1.434,8,1.359C8.034,1.389,8.073,1.418,8.11,1.445z
		 M7.708,1.153C7.61,1.206,7.492,1.278,7.353,1.368C7.431,1.283,7.521,1.189,7.61,1.098C7.643,1.115,7.675,1.134,7.708,1.153z
		 M7.289,0.933L7.289,0.933C7.22,0.974,7.136,1.025,7.037,1.083l0.149-0.19C7.223,0.905,7.256,0.917,7.289,0.933z M6.755,0.76
		C6.722,0.78,6.69,0.799,6.654,0.822c0.023-0.03,0.037-0.053,0.054-0.08C6.723,0.748,6.739,0.752,6.755,0.76z M6.127,0.543
		C6.044,0.6,5.952,0.664,5.85,0.737C5.912,0.664,5.971,0.6,6.009,0.553c0.014-0.014,0.026-0.026,0.037-0.04
		C6.074,0.523,6.1,0.532,6.127,0.543z M5.574,0.43C5.611,0.434,5.646,0.435,5.68,0.435C5.665,0.448,5.65,0.455,5.633,0.467
		c-0.217,0.149-0.608,0.416-0.84,0.541C4.877,0.864,5.01,0.657,5.132,0.476c0.016-0.026,0.018-0.054,0.01-0.082
		C5.21,0.4,5.279,0.409,5.349,0.416C5.423,0.425,5.5,0.428,5.574,0.43z M4.9,0.375L3.875,0.967c0.388-0.312,0.602-0.491,0.713-0.601
		c0.086,0,0.171,0.001,0.252,0.006C4.861,0.373,4.881,0.375,4.9,0.375z M1.557,1.445l0.078-0.07c0.102-0.09,0.199-0.177,0.309-0.25
		c0.052-0.033,0.101-0.069,0.149-0.104c0.092-0.067,0.179-0.129,0.272-0.177c0.106-0.05,0.216-0.086,0.336-0.126
		c0.021-0.009,0.043-0.016,0.065-0.022C2.516,0.89,2.139,1.178,1.736,1.484C1.635,1.533,1.55,1.553,1.489,1.546
		C1.472,1.543,1.46,1.54,1.453,1.533C1.486,1.503,1.523,1.474,1.557,1.445z M1.047,1.923c0.049-0.049,0.095-0.095,0.139-0.146
		c0.032-0.04,0.068-0.073,0.106-0.108C1.321,1.701,1.351,1.723,1.39,1.739C1.183,1.894,1.002,2.032,0.851,2.148
		C0.903,2.067,0.972,1.996,1.047,1.923z M0.527,2.889c0.021-0.101,0.038-0.194,0.077-0.281c0.005-0.002,0.01-0.004,0.015-0.009
		c0.504-0.38,0.913-0.69,1.245-0.941c0.275-0.135,0.595-0.376,0.858-0.602C3.157,0.77,3.559,0.527,3.878,0.376
		c0.054-0.004,0.108-0.005,0.15-0.005l0.184,0.001c0.021,0,0.036-0.001,0.056-0.001c-0.16,0.135-0.373,0.307-0.552,0.451
		C3.203,1.236,2.996,1.406,2.932,1.508C2.897,1.517,2.861,1.524,2.822,1.533C2.713,1.555,2.604,1.581,2.501,1.639
		C2.351,1.725,2.198,1.831,2.051,1.952C1.987,2.006,1.935,2.067,1.888,2.129c-0.23,0.119-0.636,0.355-1.375,0.82
		C0.518,2.929,0.521,2.91,0.527,2.889z"/>
</g>
</svg>
