<?xml version="1.0" encoding="utf-8"?>
<!-- Generator: Adobe Illustrator 16.2.1, SVG Export Plug-In . SVG Version: 6.00 Build 0)  -->
<!DOCTYPE svg PUBLIC "-//W3C//DTD SVG 1.1//EN" "http://www.w3.org/Graphics/SVG/1.1/DTD/svg11.dtd">
<svg version="1.1" id="Layer_1" xmlns="http://www.w3.org/2000/svg" xmlns:xlink="http://www.w3.org/1999/xlink" x="0px" y="0px"
	 width="50px" height="50px" viewBox="0 0 50 50" enable-background="new 0 0 50 50" xml:space="preserve">
<g>
	<rect x="15.621" y="15.668" fill="#A27259" width="4.69" height="4.665"/>
	<rect x="22.655" y="15.668" fill="#A27259" width="4.689" height="4.665"/>
	<rect x="22.655" y="22.668" fill="#A27259" width="4.689" height="4.664"/>
	<rect x="22.655" y="29.669" fill="#A27259" width="4.689" height="4.663"/>
	<rect x="29.688" y="29.669" fill="#A27259" width="4.691" height="4.663"/>
	<rect x="29.688" y="22.668" fill="#A27259" width="4.691" height="4.664"/>
	<rect x="29.688" y="15.668" fill="#A27259" width="4.691" height="4.665"/>
	<rect x="15.621" y="22.668" fill="#A27259" width="4.69" height="4.664"/>
	<rect x="15.621" y="29.669" fill="#A27259" width="4.69" height="4.663"/>
</g>
</svg>
